Apellido Paterno,Apellido Materno,Nombre,Correo,Teléfono 1,Teléfono 2,$Mate,$Fisica,$Química,$Calculo,NOTA,CITA,Pago Cita
Sosa, Moreno,Maria Fernanda,fer.sosasolis@gmail.com,52602825,,2000,0,0,0,M,,
Sosa, Moreno,Maria Fernananda,fersosasolis@gmail.com,5532060987,52602825,2000,0,0,0,M,,
Sosa, Mendoza,Rodrigo,laurayoalism@gmail.com,5528491119,5539401489,2000,1000,0,0,M,Cita,0
Sosa,,Maria Fernanda,mc.moreno.rechy@gmail.com,5555051855,5532060987,0,1150,0,0,F,,
Sosa, Arredondo,Sofía Naomi,morita.sophina@hotmail.com,5586033296,5586037173,1500,0,0,0,M,,
Sosa,,Valeria,valesosa.la@gmail.com,5544644460,,0,1000,0,1000,F,Cita,0
Sosayas, Nieto,Maritza Julieta,maritza_sosayasN@hotmail.com,7352047431,7351838038,500,0,0,0,M,,
SOTELO, MORELOS,XIMENA,alejandra.morelos@live.com,65496292,5548873996,2000,0,0,0,M,,
Sotelo, Gudiño,Ángel Israel,anitapgjdf@hotmail.com,5510219030,,500,0,0,0,M,,
Sotelo, Velázquez,Emiliano,dany-so3@hotmail.com,5571058249,68489573,1000,0,0,0,M,,
SOTELO, GONZALEZ,MADELYNE DETZANY,madelyne9@yahoo.com.mx,5527497583,5521775578,2000,1000,0,0,M,Cita,0
Sotelo, Tlachu,Juan antonio,Sotelotlachi59@gmail.com,5554779142,5523777833,2000,0,0,0,M,,
Sotelo,,Tania,taniasotelovillagran@hotmail.com,5534033985,,0,0,0,1000,C,,
Sotés, Barrera,Maritere,mariteresotesb@gmail.com,5521537746,53990778,2000,0,0,0,M,,
Soto, Santos,Itzel Nayelli,a.santos.t@hotmail.com,41718280,5535622923,2000,0,0,0,M,,
Soto, Jasso,Magali Abigail,abigail22soto@gmail.com,5591437444,57152273,2000,0,0,0,M,Cita,0
Soto, Rivera,Stephanie Sarai,aedith_29@hotmail.com,5569674488,5530406925,2000,0,0,0,M,,
Soto, Ochoa,Abdel,aisraelsp@gmail.com,5510101208,53895846,2000,0,0,0,M,,
Soto, Fuentes,Aislinn,aslinnsoto@gmail.com,5539534739,5582099452,2000,0,0,1000,M,,
Soto, Jarillo,Axel Daniel,danieeeldreew6@gmai.com,525523842127,525523895095,2000,0,0,0,M,,
Soto, Galicia,Fátima,fati_love14@outlook.com,5586166303,5515067610,500,0,0,0,M,,
Soto, Muñoz,Fernanda,frnstmx@outlook.com,5545624467,58275877,2000,0,0,0,M,,
Soto, Walo,Angie Gabriela,gabyswalo@gmail.com,5513312598,,2000,1000,1000,0,M,cita,0
soto, Diaz,Karina josseline,ksotodiaz5@gmail.com,5584277605,5563040034,2000,0,0,0,M,,
Soto,,Yair Jose,Peluche_soto@hotmail.com,5527374269,53882837,0,0,0,1000,C,,
Soto, Contreras,Santiago,roxana7340@gmail.com,5512909023,,200,0,0,0,M,,
Soto, Vivanco,Ricardo,rsotoa71@gmail.com,5511148768,5534451881,2000,0,0,0,M,,
Soto, Fuentes,José Eduardo,sotofuentesjoseeduardo25@gmail.com,5510677658,53038973,2000,1000,0,1000,M,,
Soto, Solís,Valeria,sotom@asf.edu.mx,5521397055,78278390,500,0,0,0,M,,
Soto, Herrera,Santiago,verruck1@hotmail.com,5536411294,56370813,2000,0,0,0,M,Cita,0
soto, Cortes,Emmanuel,victorsotoisidoro@live.com,69926503,67121061,2000,0,0,0,M,,
Soule,,Gustavo Elia,gusraioazul@hotmail.com,5545464441,,0,0,0,1000,C,,
Soulé, Núñez,Johan Daniel,myriamjmg180971@gmail.com,5546454441,5568294011,2000,0,0,0,M,,
Stopier, Salazar,Sandra Luisa,luisasalazarstopier@hotmail.com,53967140,5530851373,2000,0,0,0,M,,
Suarez,,Alejandra,ale_smarz@outlook.com,5573246162,,0,0,0,1000,C,,
SUAREZ, SANCHEZ,PAOLA,cantipao10@hotmail.com,5571948038,5561790896,2000,0,0,0,M,Cita,0
Suarez, Quintana,Christopher Iran,christo.isq@gmail.com,7229097477,7222614980,2000,0,0,0,M,,
Suarez, Sanchez,Bruno Ethan,Crudewarrior619@yahoo.com,5561264876,55788775,2000,0,0,0,M,Cita,0
Suarez, Ruiz,Alexia Estrella,estrella163@ymail.com,5587445582,5516967425,2000,0,0,0,M,,
Suarez, Marin,Karyme,karyme.suma@gmail.com,5542746493,5520583672,2000,0,0,0,M,,
Suarez, Lugo,Erika,suarezlugo74@hotmail.com,5523227942,,2000,0,0,0,M,,
SUAREZ, JIMENEZ,BRENDA,yjimenez1977@hotmail.com,044 55 1352 90 51 ,55774658,2000,0,0,0,M,Cita,0
Suárez,,Airy Yokebed,airyledezma@outlook.com,5578813175,57575004,0,0,0,1000,C,,
Suárez, García,Daniela Alejadra,alexdasg@gmail.com,47528549,5523576881,2000,0,0,0,M,,
Suárez, García,Lexi Haydeé,breshka143@gmail.com,5535304530,5512037510,2000,1000,1000,0,M,Cita,0
Suárez, Velasco,Andrea Ilyan,Glora32@hotmail.com,25949062,5573933158,2000,1000,250,0,M,,
Suárez,,Joshua Diego,glora32@hotmail.com,5573933158,25949062,0,1000,250,0,Q,,
Suárez, Guerra,Francisco Manuel,holy is god_04@hotmail.com,5524992046,,2000,0,0,0,M,Cita,0
Suárez, Hernandez,Johann Uriel,normatanes@gmail.com,15576971611,,2000,0,0,0,M,Cita,0
Suárez,,José Antonio,ppant.sua@gmail.com,5511316392,5537262920,0,1000,1000,1000,C,,
Tabares, Farias,Pamela Berenice,berenice_tabares@hotmail.com,5578011689,5529409180,2000,1350,0,0,M,,
Tabarez, Sanchez,Isaac Abraham,Isaac.tasan@gmail.com,58581353,5520924990,2000,1000,500,0,M,Cita,0
Taboada,,Luis Isaac,isaactp41@gmail.com,57378385,5546441230,0,1000,0,0,F,,
TABOADA, ALCARAZ,ADRIAN FABRIZIO,noriaa25@hotmail.com,445537179369,75734058,2000,0,0,0,M,,
TABOADA, ALCARAZ,CLAUDIO,noriaa25@hotmail.com,5537179363,,2000,0,0,0,M,,
Taboada, Ponce,Luis Isaac,ta.baro@hotmail.com,5554697731,5546441230,2000,0,0,0,M,,
Tadeo,,Zeltzin Alejandra,zell.tadeo@gmail.com,5546754144,,0,1350,0,0,F,,
Tagle, Pelaez,Fernando,pelaezflores0937@gmail.com,26035340,5545756133,2000,0,0,0,M,,
Tamaya, Hernández,Arely Berenice,bereniceglm.75@gmail.com,5516848239,5574031387,2000,0,0,0,M,,
Tapia, Lopéz,Carlos Adolfo,Crucita2604@hotmail.com,5566249170,5562865167,500,0,0,0,M,Cita,0
Tapia, Hernandez,Ernesto,elenah.irigoyen@gmail.com,5527656295,5532255014,2000,0,0,0,M,,
Tapia, Palama,Eunice,eunicetp42@gmail.com,5536470571,5575853603,1000,0,0,0,M,,
Tapia, Gomez,Uriel,faviola.tapia@scandia.com.mx,53185321,5568184838,2000,0,0,0,M,,
Tapia, García,Rommel,Goove_fany@hotmail.com,53064965,,2000,0,0,0,M,,
Tapia,,Karen Fernanda,karentapiaj75@gmail.com,5515274648,5554143008,0,1000,0,0,F,,
tapia, guerrero,diana sarahí,mane.alonzo.tapia@gmail.com,5568985755,5535110069,2000,0,0,0,M,,
Tapia, Hernadez,Ricardo David,ricardo.tapia224@gmail.com,5580126710,,2000,0,0,0,M,Cita,0
Tapia, Gutiérrez,Fátima,tapiafatima311@gmail.com,5525770072,,2000,0,0,0,M,,
Tavera, Aguilar,Jesus Antonio,chuchotavera54@gmail.com,5585419484,56913869,500,0,0,0,M,,
Tecocoatzi,,Francisco Javier,fjtema1998teco@gmail.com,9331151301,,0,1000,0,0,F,,
Tejeda,,Brenda,brencruxz18@gmail.com,5574766582,,2000,0,500,0,Q,cita,0
Tejeda, Paz,Jocelyn Diana,Jesústejeda269@hotmail.com,5560158931,5583098628,200,0,0,0,M,,
Tejeda, Flores,Valeria,mgfm77@hotmail.com,5532425107,5540375241,2000,0,0,0,M,,
Tejero, Garcia,Esmeralda Sarai,Esmeraldatejero78@gmail.com,5571645303,5531597468,500,0,0,0,M,,
Telesforo, NEGRETE,Alejandro,Mundo_101091@hotmail.com,445565000000,,500,0,0,0,M,,
Telles,,Juan Manuel,juanman3805@gmail.com,5537303656,,0,0,0,200,C,Cita,0
Tellez, Luna,Rosalía,dianalaura.dlmohe@gmail.com,5543779974,,2000,0,0,0,M,,
Tellez,,Flavio,halo_gear1@hotmail.com,5567045985,58121411,2000,0,0,0,Cita,Cita,0
Tellez, Pascual,Leticia,pall76@live.com,5571672599,5535331290,2000,0,0,0,M,Cita,0
Tellez, Cervantes,Cesar Abraham,sarop3n3@gmail.com,5519753680,5516931236,2000,0,0,0,M,Cita,0
Tellez, Tlapale,Uriel Antonio,teresa_tellez08@hotmail.com,56480212,5581675533,2000,0,0,0,M,,
Tellez, Basilio,Viviana,vivianita.2001.vtb@gmail.com,5561717246,5517703127,2000,0,0,1000,M,,
Téllez,,Eber Octavio,eber710@gmail.com,5583211580,,0,0,1200,1000,Q,,
Téllez, Serrano,José Isaac,jose_isaac_tellez@outlook.es,5552745569,56931693,2000,0,0,0,M,Cita,0
Téllez, García,Valeria Lizbeth,valeria051096@hotmail.com,5581294913,5546659522,500,0,0,0,M,,
Tenopala, Arriaga,Chrystian,chryristiantenopalarriaga@gmail.com,5511408724,5580108122,2000,0,0,0,M,,
Tenorio, Pérez,Cristopher Alan,captcapricornio9@gmail.com,5561767255,5513329524,2000,0,0,0,M,,
Tenorio, Salinas,Ira zeiren,Erika86_12@hotmail.com,5574743110,41738788,2000,0,0,0,M,,
Tenorio, González,Jemmy Graciela,hernandez_jh08@outlook.com,5570767747,5531108053,2000,0,0,0,M,,
Tenorio,,Ira,irazeiren2001@gmail.com,5513336716,5580175408,0,0,0,1000,C,,
TENORIO, HERNANDEZ,ANGEL FABIAN ADRIAN,mohcarm@hotmail.com,5536452737,5511928863,2000,0,0,0,M,,
Tenorio, Hernández,Rachel Ariadna,nena.th13@gmail.com,5526778350,70332888,500,0,0,0,M,,
Tepox, Olvera,Dylan Joseph,olveradiazperla@outlook.com,5528458441,66453170,2000,0,0,0,M,,
Teran, Morales,Jimena,mamadejimiyjaki@live.com.mx,5535703284,5518271749,2000,0,0,0,M,Cita,0
Terán, Triana,Angel Fernando,fterantriana@gmail.com,5530577159,58251481,2000,1000,0,0,M,Cita,0
Terán, Gallegos,Kitzia Abigail,KitziaTeran@outlook.com,57017363,5521073976,2000,200,0,0,M,,
Terán, Maldonado,Diego,marlenneteran@outlook.com,5548331816,26324480,2000,0,0,0,M,,
Teroba, Sánchez,Esmeralda,esmeralda_beautiful_18@hotmail.com,5566671227,5520715137,500,0,0,0,M,,
TERRENOS,,MAURICIO FERNANDO,ivanbb@live.com.mx,5531986680,,0,0,1000,0,Q,,
Terreros, Zúñiga,Erick Isaac,Isaac.terreros@outlook.com,5582102389,5549037434,2000,0,0,0,M,,
Texis, Xicohténcatl,Ana Lizeth,hello-_-seahorse@hotmail.com,2461474312,2461155559,2000,0,0,0,M,,
Tiburcio, Ramírez,Brenda,brendatr.00@hotmail.com,5513875583,50976750,2000,1000,0,0,M,cita,0
Tinoco, Hernández,Angie Michel,claugym@gmail.com,5516526366,57006620,2000,0,0,0,M,,
Tlelo, Reyes,Jennifer,areli.tlelo07@gmail.com,5580080389,5575177745,2000,0,0,0,M,Cita,0
Toca, Figueroa,Milena,tocaalove@gmail.com,5568793701,,2000,0,0,0,M,,
Toledano, Vasquez,Jessica Jazmin,jaztv@live.com,5582210260,5582210260,2000,0,0,0,M,,
Toledano, Meneses,Karen Monserrat,karentoledano857@gmail.com,5583991057,5528941918,500,0,0,0,M,Cita,0
Toledano, Gutierrez,Luis Fernando,luistoledano990830@gmail.com,53580713,5574126015,2000,0,0,0,M,,
Toledano, Alonso,Mahonri Moriancumer,Mahonri503@gmail.com,5516929575,5552746179,500,0,0,0,M,,
Toledo, García,Gustavo,pizzahawahiana10@gmail.com,21257602,,2000,0,0,0,M,,
Toledo, Sanchez,Axel Rodrigo,tanqu97.57@gmail.com,5562523814,5563063621,2000,0,0,0,M,,
Tomás,,Joselyn,jostomasor77@gmaul.com,9512506358,9515265867,0,1350,600,1000,Q,,
Toral, Dorantes,Darany,beresilodara@hotmail.com,5574257989,5510812495,2000,0,0,0,M,Cita,
TORRE, DIONICIO,AGUSTIN DE LA,togaka9@hotmail.com,5512283316,5528525813,2000,0,0,0,M,,
TORREBLANCA, PÉREZ,KEVIN,kevin.torreblanca@yahoo.com.mx,5523790802,,2000,0,0,0,M,,
Torres, Hernandez,Naomi,alexa_7624@hotmail.com,30982260,5574297490,200,0,0,0,M,,
Torres, Medina,Luis Alexis,alexis.puma05@gmail.com,5572126145,,500,0,0,0,M,,
Torres, Rangel,Carlos Fernando,carlossferdinandoo@gmail.com,5570071607,,2000,0,0,0,M,,
Torres, Ponce,María Celeste,celes_trrz@hotmail.com,5514873710,5543540153,2000,0,0,1000,M,Cita,0
Torres, Gallegos,Christian,christian161158@gmail.com,5510081407,5573143076,2000,0,0,0,M,,
Torres, Moreno,Kevin Joshua,delca_rdm@hotmail.com,5543845163,5576972685,2000,0,1000,0,M,,
TORRES,,ANAID,desp.torresanaid@gmail.com,5540555512,,0,0,0,1000,C,,
Torres, Rosas,Daniel German,dgtorresr102899@gmail.com,50440155,5560629342,2000,0,0,0,M,,
Torres,,Leslie,diva_lesly16@outlook.com,5548538494,5510141760,0,500,0,0,F,,
Torres, Celaya,Zoe Aline,dulcelayac@hotmail.com,5529719631,,2000,0,0,0,M,,
Torres, Gutierrez,Emiliano,elgranyemi007@gmail.com,5544946631,5573331705,500,0,0,0,M,,
Torres, Ruíz,Erick,ericktorresruiz@gmail.com,5561699488,,2000,0,0,0,M,,
TORRES, RAMOS,GABRIEL ANTONIO,gabyramos73@gmail.com,5520952728,0,2000,1000,1000,0,M,,
Torres, Pérez,Somar,irving_tlacaelelt@hotmail.com,5514743100,5513536037,2000,0,0,0,M,Cita,0
Torres, Ramirez,Carla michel,isa69615@gmail.com,5564164063,5510502468,2000,0,0,0,M,,
Torres, Romero,Itzel Lolbeth,itzel_lolbeth@hotmail.com,5529452114,5540161543,2000,0,0,0,M,,
Torres, Amador,Jorge Alberto,jorgejordan2004@gmail.com,5587477638,5583390835,2000,1000,1000,0,M,,
torres, esperanza,Jose Ianh,joseianhtorresesparza@gmail.com,5563550480,,2000,1000,1000,950,M,Cita,0
torres, zepeda,sofia,korn_sofia@hotmail.com,5576713482,5538853360,2000,0,0,0,M,,
Torres,,Luis,luis24031975@gmail.com,51194835,5536741791,0,0,1000,1000,C,,
Torres, Salas,MELISA,meelitorres@outlook.com,53972232,,2000,0,0,1000,M,,
Torres, Pérez,Guadalupe Monserrat,monserrat.torres.perez08@gmail.com,5528779973,58130053,2000,0,0,0,M,,
Torres, Tolentino,Lizet Mariana,mwmttmt@gmail.com,5565054169,5515019912,500,0,0,0,M,,
Torres, Alvarez,Nancy Alejandra,nancy3tor@gmail.com,5564812330,5529152823,2000,0,0,0,M,Cita,0
Torres, García,Nayeli,nayelitg37@gmail.com,5587075378,,2000,0,0,0,M,Cita,0
Torres, Palacios,Dulce Regina,normatp79@gmail.com,5577608167,5574492074,2000,0,0,0,M,,
Torres, Pérez,Alan,oterres45@gmail.com,5576095465,70389872,500,0,0,0,M,,
Torres, Perez,Maria Fernanda,oterres45@gmail.com,5576095465,70389872,500,0,0,0,M,,
Torres, Ramírez,Santiago Adrian,paulina_ram16@hotmail.com,5543863694,5538621673,2000,0,0,0,M,Cita,0
Torres, Mendoza,Jesus Ivan,pitamendoza22@yahoo.como. mx,5530547133,53892051,0,1000,0,0,M,,
Torres, Salazar,Ariadna Rubí,salazart.remedios@gmail.com,2711604090,,2000,0,0,0,M,,
Torres, Lara,Sandra,sandycordova626@gmal.com,5534692711,5525309049,2000,0,0,0,M,Cita,0
Torres, Carranza,Andrea Scarlet,scarlettcarranzasc@gmail.com,5591690313,5534993412,2000,0,0,0,M,,
torres, fragoso,ikedany,sf_yayo@outlook.es,5527038102,26224106,2000,0,500,0,M,,
Torres, Aguilar,Diana Shareni,Shareni_chan@live.com,5567715091,5575337241,2000,0,0,0,M,,
Torres, Garduño,Sheccid,sheccid.satg@gmail.com,9982191360,,2000,0,0,0,M,,
Torres, Cruz,Nadia Ameyalli,soy_towers@hotmail.com,5521793710,5545223347,2000,0,0,1000,M,,
Torres, Lopez,Sebastian,stl.24_199@hotmail.com,5530216437,,2000,0,0,0,M,,
Torres,,Nathaly,thalytorres@hotmail.com,7351901186,7351777027,0,0,0,2000,C,,
Torres, Flores,Daniela Fabiola,torres11072015@gmail.com,5554662556,5534060941,2000,0,0,0,M,,
Tort, Aguilar,Paula Sofía,mariatort2710@gmail.com,5544496440,70384854,2000,0,0,0,M,,
Toscano, Martínez,Alan,antonytos6959@gmail.com,55872759,445543391244,2000,0,0,0,M,,
Toscano, Flores,Michelle Alondra,michelletscn@gmail.com,5553498059,56508790,2000,0,0,0,M,,
Tovar, Celis,Edgar Daniel,bertha.simpson@hotmail.com,5516497954,,2000,200,0,0,M,,
Tovar, García,Luis David,gomi312826@hotmail.com,5538765785,5551592843,2000,0,0,0,M,,
Toxtle, Cuautle,Lizbeth,lizbethtoxtle240203548@gmail.com,5513764558,5521933408,2000,0,0,0,M,,
Toy, Diaz,Patricia,patty_toy_diaz@hotmail.com,9711140104,9711210952,2000,0,0,0,M,,
Trejo,,Diana Paola,adrimendoza7@yahoo.com,5538846139,5520949358,0,1000,0,0,F,,
Trejo, Rosas,Aaron,atrejoriv@gmail.com,5527026995,5534425800,2000,0,0,0,M,,
Trejo, Soto,Daniel,dniel1324@gmail.com,5538169701,,2000,0,0,0,M,,
Trejo, Ramirez,Donovan Gilberto,Donovan20012709@hotmail.com,5561204076,5548087421,500,0,0,0,M,,
Trejo, Sanchez,Erick Damian,ErickGamer260@gmail.com,5510984680,5516866277,500,0,0,0,M,,
Trejo, Resendiz,Jose Gerardo,lowridergt@live.com.mx,5578106920,5519146463,1500,0,0,0,M,Cita,0
Trejo, Camacho,Nicolás Ernesto,luz130807@gmail.com,5574489641,53448518,2000,0,0,0,M,,
Trejo, Peñalver,Zara Kamila,mmelbapenalver@hotmail.com,80206289,5539865506,2000,0,0,0,M,Cita,0
Trejo, Rodriguez,Héctor Esaú,oscarreto75@yahoo.com.mx,5521934535,5521934535,2000,0,0,0,M,,
Trejo, Rodríguez,Nora Montserrat,oscarreto75@yahoo.com.mx,5521934535,5521934535,2000,0,0,0,M,,
Trejo, Juárez,Ramiro,ramiro.trejo106@gmail.com,5516579007,5511224649,1000,0,0,0,M,,
Trejo,,Guillermo Sebastian,sebtresc.04@gmail.com,5545756372,,0,0,0,1000,C,,
Trejo, Marroquín,Arisbeth,thebsiratrejo1516@hotmail.com,5518110037,,2000,1000,0,0,M,cita,0
Trejo, Ogando,Carlos Mauricio,xkozachenkox@hotmail.com,5539707865,,2000,0,0,1000,M,,
Trejo, Soto,Yazmin,yaz.ts@hotmail.com,5513362420,53232318,2000,0,0,0,M,,
Treviño, Medellin,Luis Fernando,mary.medellin@variacionesdevoltaje.com,445563572256,,2000,0,500,0,M,Cita,0
Treviño, Fragoso,Elisa,nowparamore12@gmail.com,5530108478,5530108478,2000,0,0,0,M,Cita,0
Treviño, Valencia,Cecilia lisset,zezi.tvl@gmail.com,55156618,5555086515,2000,0,0,0,M,,
Trigueros, Guarneros,Christian,boshi28@hotmail.com,5518527333,,2000,0,0,0,M,,
Trinidad, Santillán,Roosevelt Jared,rusbeljared58@gmail.com,5573849224,,500,0,0,0,M,,
Trujillo, Juárez,Pamela Arleth,arlethtrujillo86@gmail.com,5573897962,55612187,2000,0,0,0,M,,
Trujillo, Arellano,Karen,karentrujilloa03@gmail.com,5531274830,,2000,0,0,0,M,,
Trujillo, Mondragón,Alejandro,maryy.79@hotmail.com,5553239049,5551013021,2000,0,0,0,M,,
Trujillo, Gonzales,Diego Antonio,trujillo.felipe@gmail.com,5591993532,58137442,2000,0,0,0,M,,
Tufiño, Hernández,Miguel Angel,fabhdez82@gmail.com,70310950,5537284725,2000,0,0,0,M,,
Tufiño, Roldan,Horacio Israel,horacio.israel15@gmail.com,5535102518,,500,0,0,0,M,,
Ubaldo, Rodriguez,Jessica,jessrj27@gmail.com,5517129661,,2000,0,0,0,M,,
Ubaldo, Rodriguez,Miranda Isabel,mirandaubaldo29@gmail.com,5583985893,,2000,0,0,0,M,,
Ugalde, Lopez,Omar,Omarugaldelopez@gmail.com,5545719111,5535107997,300,0,0,0,M,,
Ugarte, Galicia,Acatzin Ayari,princes_acatzin@hotmail.com,5551525724,56951210,2000,250,250,0,M,,
Uraga, Sánchez,Laotsen,lau_tsen@hotmail.com,49898241,5573080738,2000,0,0,0,M,,
Urbano, Olguin,Nuria Fernanda,molguinfer@gmail.con,5535903077,5521853519,200,0,0,0,M,,
Urbina, Cruz,Roberto Alexis,arroxi@yahoo.com.mx,5521155692,5529483024,2000,0,0,0,M,,
Urbina, Medina,Luz Elena,luxecita_pretty_urbina@hotmail.com,5578970340,63041334,2000,0,1000,0,M,Cita,0
Ureña, Cervantes,Adrian,Juanacervald@gmail.com,22351862,70385622,2000,1000,1000,0,M,cita,0
Uribe, Pacheco,Jennifer Alejandria,Axel-uribe01@hotmail.com,5537303028,5510153648,2000,0,0,0,M,Cita,0
Uribe, García,Ivanna,ivannaug25@gmail.com,5586869876,5531456723,2000,0,0,0,M,,
Uribe, Sánchez,Leonardo,leo_uribe13@hotmail.com,5552963289,,2000,0,0,0,M,,
Uribe, Valencia,Ricardo,ricardouribevalencia@gmail.com,5512908669,5560774547,2500,0,0,0,M,Cita,0
Uriel, Serafin,Carlos,whatsonsegundo21@gmail.com,5516874871,5516874871,2000,0,0,0,M,,
Urrea, Cruz,Misael,cars_misael@hotmail.com,5544756010,5520309015,2000,0,0,0,M,,
Urrutia, Balderas,Ximena Isaí,mena_xi@icloud.com,5511923301,,2000,0,0,0,M,,
Uzcanga, Gonzalez,Karina,Karina9@gmail. Com,5564176317,17099651,2000,0,0,0,M,,
Valadez, Bermudez,Guillermo,Vaeulopa1@gmail.com,5582143874,5544414306,200,0,0,0,M,,
Valderrama,,Alejandra Danaé Camacho,alevalderrama2215@gmail.com,5539132625,,2000,1000,0,1000,C,cita,0
Valdes, Jiménez,Jose carlos,Carlosvaldes993@gmail.com,5549022129,,500,0,0,0,M,,
Valdes, Portillo,Frida Miroslava,frida.m.port@gmail.com,5566931661,5543285553,2000,0,0,0,M,,
Valdes, Martinez,Ramses,ramses6833@gmail.com,5565238561,5523400197,2000,0,0,0,M,,
valdes, ruiz,angel eduardo,ruizc2484@gmail.com,5513397121,45987402,2000,0,0,0,M,,
Valdes, García,Tania,tania.valdes.pc@gmail.com,26465649,5511344837,2000,0,0,1000,M,Cita,0
VALDES, RIVAS,RUBEN,valdesrivasruben@yahoo.com.mx,5545987402,5545987402,500,0,0,0,M,,
Valdés, Rocha,Luis Ángel,darkagelyus@hotmail.com,5558524753,4424439181,2000,0,0,0,M,,
Valdés, Brito,Albert Alexander,hbritora@hotmail.com,5514988695,5582494491,2000,0,0,0,M,,
Valdés,,Maria Fernanda,hbritora@hotmail.com,63899253,5514988695,0,0,0,1000,C,,
Valdés, Vidal,Irma,irmavavi19@gmail.com,5523390500,5552487651,2000,0,0,0,M,Cita,0
Valdés, Salas,Zoé Yolátl,zoee.bt@gmail.com,5529661388,57596210,1000,0,0,0,M,,
Valdez, Crespo,Jesica Anaid,anaid.valdez02@gmail.com,5578189281,,2000,0,0,0,M,,
Valdez, almogobar,Vanessa Vianney,araceli_almogobar@hotmail.com,5544203193,70251500,2000,0,0,0,M,Cita,0
Valdez, Ambrosio,David Irving,chivaasharon@hotmail.com,5548717320,,500,0,0,0,M,,
Valdez, Durán,Emmanuel,emanayopri.12@gmail.com,7122465278,7121221605,500,0,0,0,M,,
Valdez,,Emilio,emilio_valdez79@hotmail.com,445516482410,53934006,0,0,0,1000,C,,
Valdez, Chagoya,Emilio Antonio,emivaldez15@gmail.com,5516482410,53934006,0,0,1000,0,M,,
Valdez, Flores,Daniel Enrique,erikav74@hotmail.com,5526537944,26515162,2000,0,0,0,M,Cita,0
Valdez, Flores,Víctor Manuel,erikav74@hotmail.com,5526537944,26515162,2000,0,0,0,M,Cita,0
Valdez, Rodríguez,Jorge,holmes67.sh@gmail.com,5581937253,58425534,200,0,0,0,M,,
Valdez, Reyes,Jessica,jessika_star99@hotmail.com,5531391857,5532247989,2000,0,0,0,M,,
Valdez, Rincon,Jose Yael,juana.rinconh@gmail.com,5567078804,5520778735,500,0,0,0,M,,
Valdez,,Osvaldo Jesus,osvaldoflores504@hotmail.com,58571038,5564781963,0,1000,0,0,F,,
Valdez, Vieyra,Ricardo,pepasgamersmasters@gmail.com,5580781166,5548274419,2000,0,0,0,M,,
Valdez, Sanchez,Jonathan,sanchezjhony012@gmail.com,5584405385,56371942,2000,0,0,0,M,Cita,0
valdez,,lizeth guadalupe,zahory.valdez22@gmail.com,5528934203,56900807,0,0,0,1000,C,,
Valdéz, Lázaro,Daniela,daniela.valdez.lazaro@hotmail.com,5519003929,5571974956,2000,0,0,0,M,,
Valencia, Fonseca,Alejandra,alejandravalenciafonseca@gmail.com,53100329,5527617386,2000,0,0,1000,M,,
Valencia, Hernández,Mariano,Anawalkerdead@icloud.com,5547752156,,2000,0,0,0,M,,
Valencia, Villanueva,Andrea,Andia2001@hotmail.com,5540914873,57300660,2000,0,0,0,M,,
Valencia, Mendieta,Angel Moises,avalenciamendieta@gmail.com,5554138025,5572985041,2000,1001,0,0,M,Cita,0
Valencia, Rojas,Luz Yazmin,clau11692000@yahoo.com.mx,5523101478,5520782501,2000,0,0,0,M,,
Valencia, Briones,Daniela Maria,dannvb7@gmail.com,5521180789,58037395,2000,1350,1000,1000,M,Cita,0
Valencia, Mendez,Gustavo,gustavovalencia070800@gmail.com,5578901792,,2000,0,0,0,M,,
Valencia, Gress,Gael jesus,Julyana.gress@yahoo.com.mx,5746794660,27330186,2000,0,0,0,M,,
Valencia, Peralta,Josué,liberfel@hotmail.com,5573660659,53679360,2000,0,0,0,M,,
Valencia, Ramirez,Edgar Ettiene,lic.evalenciam@gmail.com,5527411805,70229325,2000,0,0,0,M,Cita,0
Valencia, Ramirez,Christian Dazael,moisesvalguz@hotmail.com,49770080,445527265969,2000,0,0,0,M,,
Valencia, Suárez,Ennyhany Odel,perlasmoreno@gmail.com,5520969328,,2000,0,0,0,M,,
Valencia, Duarte,Montserrart Guillermina,princesa.gatita.miau@hotmail.com,5535067542,5518440611,2000,0,0,0,M,Cita,0
Valencia, Galeana,Andrés Manuel,pukiandres37@gmail.com,5537365269,5534739820,500,0,0,0,M,,
Valencia,,Andrea,solar.6411@gmail.com,57300660,5518144060,0,1000,1000,0,Q,cita,0
Valencia, Martinez,Eliacid iram,titruey@yahoo.com.mx,5554605993,5530606928,2000,1000,0,0,M,,
Valencia, González,Andrea,valenciaandrea526@gmail.com,7711650789,7791080132,2000,0,0,0,M,,
Valencia, Romero,Diego,valenciard061000@gmail.com,5543928479,53361416,2000,0,0,0,M,Cita,0
Valencia, Sánchez,Fernando Eduardo,valenciasanchezfernando@gmail.com,5534335456,53683466,2000,1000,0,0,M,,
Valenzuela, Moreno,Ana Gabriela Fernanda,gominola8033@gmail.com,26821027,5514207451,2000,0,0,0,M,,
Valenzuela, Moreno,Roberto Isaac,gominola8033@gmail.com,26021027,,2000,0,0,0,M,,
Valerio, Nava,Citlali,citlavalnav@gmail.com,5527217765,26505965,2000,0,0,1000,M,,
Valladares, López,Hannia Aylin,Ltav31@hotmail.com,5547201200,5563446434,2000,0,0,0,M,,
Valle, Gudiño,Valeria,blancagud17@hotmail.com,5519837102,56480265,1500,0,0,0,M,Cita,500
VALLE, RIVERA,SERGIO ALEJANDRO DEL,ironsaw95@gmail.com,5585575354,5585575354,2000,0,0,1000,M,Cita,0
Valle, Plata,Angel Felipe Del,marianaplata36@gmail.com,5530514992,5530514992,2000,0,0,0,M,Cita,0
Vallejo, Pineda,Oscar Eduardo,eloy.1998.1130@gmail.com,5584825295,5545487190,2000,1000,0,0,M,,
Valtierra, Ayala,Zaira monserrat,Zaivalay@gmail.com,5561850906,70236613,2000,0,0,0,M,Cita,0
Vanegas, Garcia,Andres,andres_kresnik@live.com.mx,5564480854,5522497636,2000,0,0,0,M,cita,0
Vara, Maya,Oscar,oscar.pantera12@gmail.com,7221301791,7131312586,2000,0,0,0,M,,
Varela, Ramirez,Damian,arc_castillo@hotmail.com,55461086,5534490117,500,0,0,0,M,,
Varela, Chavez,Dafne Abigail,blanchet-14@hotmail.com,5563785817,5574031220,2000,500,1000,0,M,,
varela, morales,luis fernando,gamochita25@live.com,5519648965,,2000,0,0,0,M,,
Varela, Jimenez,Diego,irma.jimenez2@gmail.com,55869800,5545197915,2000,0,0,0,M,Cita,0
Varela, Romero,Katherine,Katyvrm2011@hotmail.com,5534249198,5577432664,2000,0,0,0,M,,
Varela, Hernandez,Noe Santiago,marantonva@live.com.mx,5562598962,5563785817,2000,0,0,0,M,,
Varela, Vázquez,Víctor,maytev377@gmail.com,5516968044,,2000,0,0,0,M,,
Varela, Veyna,Cinthya Melissa,veynasm@hotmail.com,5530224616,5521901781,2000,0,0,0,M,,
Vargas, Hernández,Alexandra,amordosmil15@hotmail.com,5511523321,5525164003,500,0,0,0,M,,
Vargas,,Ana,anavj0604@hotmail.com,5540316781,,0,0,0,1000,C,,
Vargas,,Karen Aranzazu,aranzarobles06@gmail.com,5564230183,5519528419,0,0,0,1000,C,,
Vargas, Aviles,Eric,bimo.ev@gmail.com,5532012065,5541429549,2000,0,0,0,M,,
Vargas, Alvarez,Chelsea Celeste,cga.lalvarezs@gmail.com,5529066066,5562994272,2000,1001,0,0,M,Cita,0
Vargas, Medel,Axel Arturo,chebruto08@gmail.com,5582329699,17094874,2000,0,0,0,M,,
Vargas, Hernández,Chieloni,chio.vargas@hotmail.com,5552075577,5581200541,2000,0,0,0,M,,
Vargas, Cureño,Aranza,cocoaranza@yahoo.com.mx,5527666210,76753046,2000,0,0,0,M,,
Vargas, Martinez,Diana Mariana,dianamartinezloera9@gmail.com,5537210557,5531168206,500,0,0,0,M,,
Vargas, Medrano,Fernando Ivanov,dianamedrano8232@gmail.com,5534015281,,2000,0,0,0,M,,
Vargas, Robles,Miguel Angel,docmzeus@gmail.com,5555037729,5564230183,2000,0,0,0,M,,
Vargas,,Edith Guadalupe,edipoho0529@gmail.com,5560979891,,0,0,0,1000,C,,
Vargas, Gracia,Fátima Lizette,fatima.vag@hotmail.com,7351907077,,500,0,0,0,M,,
Vargas, Casas,Fatima,fativargas29@gmail.com,5578059775,5528996692,200,0,0,0,M,,
Vargas, Olvera,María Fernanda,ferblackbelt25@gmail.com,5585468070,5512997027,2000,0,0,0,M,,
Vargas, Flores,Mario,flosan.mvf@gmail.com,9541494515,,2000,0,0,0,M,,
Vargas,,Alejandro,ing.avargas70@gmail.com,5530608600,27443141,0,0,0,1000,C,,
Vargas, Rubio,Ethan Hesler,itaspin@outlook.com,5538228880,,2000,1000,0,0,M,,
Vargas, Jorge,Ivan,ivargasjmx@gmail.com,5583685089,,2000,0,0,0,M,Cita,0
Vargas, Urioste,Jaime Mario,Jaimevarmed@gmail.com,5553802414,,500,0,0,0,M,,
Vargas,,Joel Nevid,joelvargas90@hotmail.com,5530582869,,0,0,0,1000,C,,
Vargas,,Jorge,jorge.vargasz99.jv@gmail.com,5529411229,56996714,0,0,0,1000,C,,
Vargas, Cortes,Jonathan Uriel,juan.vargas2791@gmail.com,4491960185,20091360,2000,0,0,0,M,,
vargas, arteaga,cristian ramses,juan17vargas@hotmail.com,5560876907,5539654347,500,0,0,0,M,,
Vargas, Císneros,José andres,lorena01.llcc@gmail.com,5574737655,5531995010,200,0,0,0,M,,
Vargas, bucio,Maria Valeria,lucy.vark@hotmail.com,63652549,5521176331,250,0,0,0,M,,
Vargas, Leal,Andrea,maryta-leal.1971@hotmail.com,5565382246,5577312878,500,0,0,0,M,,
Vargas, Guerrero,Melisa,melisavargas_2013@outlook.es,5560634589,5526702313,2000,0,0,0,M,,
vargas, alcalá,aura,mitzyal@yahoo.com,5513586692,5513586692,2000,0,0,0,M,,
Vargas, Godinez,Katherine,monserratgod42@gmail.com,5562292013,5532267132,2000,0,0,0,M,Cita,0
Vargas, Arriaga,Angel Adrian,mrocio.arriaga@gmail.com,5534635630,5538946786,2000,0,0,0,M,,
Vargas, Martinez,Dayana Guadalupe,Natsukifujoshi@hotmail.com,49947131,445540519652,2000,0,0,0,M,,
Vargas, Vázquez,Arturo Abraham,provnts@gmail.com,5550590408,5574393855,2000,0,0,0,M,,
Vargas, Garay,Valeria,quesovvg@gmail.com,5546379016,5557480013,500,0,1000,0,M,,
Vargas, Ortiz,Randall,randyruby27@gmail.com,5585360407,5518396548,2000,0,0,0,M,,
Vargas, Romero,Ricardo Isaac,ricardoisaac.rv@gmail.com,52717536,5545480959,2000,0,0,1000,M,,
Vargas, Basaldua,Valeria Sherlyn,Vaaleria_basaldua@hotmail.com,5564138921,58884297,2000,0,0,0,M,,
Vargas, Hernández,Brenda,Vargas 741brenda@gmail.com,16438099,5571935697,2000,0,0,0,M,,
Vargas, Arenas,Yael,vargas.200114@outlook.com,7352512604,,500,0,0,0,M,,
VARGAS, PADIERNA,EMMANUEL ALEJANDRO,vargas.emmanuel12@gmail.com,5582970728,,2000,0,0,0,M,cita,0
Vargas, Castro,Jesús Alberto,vargascastroa1@gmail.com,7461188810,5541023398,2000,0,0,1000,M,,
vargas, morales,Yair emanuel,yair8987@hotmail.com,5574597037,41215835,2000,0,0,0,M,Cita,0
Vasco, Giraldo,Juan Esteban,juanlandia3000@gmail.com,5576304410,72594680,2000,0,0,0,M,Cita,0
Vasquez, Salazar,Jessica,jessicavasquezsalazar.3rod@gmail.com,12726769,5515717570,500,0,0,0,M,,
Vasquez, Solis,Felipe,refacvilla@hotmail.com,5541408300,5537222760,2000,0,0,0,M,,
Vásquez, Cruz,Ana Laura,ana.laura991104@gmail.com,5591252393,,500,0,0,0,M,,
Vazquez, Perez,Adelina,adelina.vazquez78@gmail.com,5554951376,,2000,0,0,0,M,,
vazquez, diaz,anayeli,ana.diazvazquez1997@gmail.com,58275587,5525374711,2000,0,0,0,M,,
Vazquez,,Andrea,andreaivazsan@gmail.com,260783003,5551060555,0,1000,0,0,F,,
Vazquez, Gómez,Erika Vanessa,antonimarc45@gmail.com,89929652,5511537503,500,0,0,0,M,,
Vazquez, Ortega,Yahír neftali,Biomedica_rx@hotmail.com,75774918,5513789350,200,0,0,0,M,,
Vazquez, Vazquez,Aidan Emilio,blackliondragon2@gmail.com,5523980871,,500,0,0,0,M,,
Vazquez, Valencia,Cassandra,cassandraSCVV@gmail.com,5549527408,65465232,2000,0,0,0,M,,
Vazquez, Bautista,Carlos,charliecvbcvb@gmail.com,5515348528,57979992,1000,0,0,0,M,,
Vazquez, Sánchez,Andrea Itzel,dianakvazquez05@gmail.com,2342434231,5577271296,2000,0,0,0,M,,
Vazquez,,Diana Karen,dianakvazquez05@gmail.com,26078303,5588062304,0,1000,0,0,F,,
Vazquez, Brito,Samuel,doreyda.brito@gmail.com,445529681432,5539300810,300,0,0,0,M,,
Vazquez,,Erendira,franciscovazquezh@hotmail.com,5515013265,5513708179,0,1000,0,0,F,,
vazquez, rojas,milton fabian,frojaszr1@gmail.com,5525201125,63615588,2000,0,0,0,M,,
Vazquez,,Monica Gisela,gisssela.vazquez@gmail.com,553905933,5561271560,0,0,0,1000,C,,
Vazquez, Nuñez,Maria Fernanda,hectorvm@outlook.com,5513736931,,2000,0,0,0,M,,
Vazquez, Nuñez,Saul,hectorvm@outlook.com,5513736931,,2000,0,1001,0,M,Cita,0
Vazquez, Vidal,Brisa America,hortensia.vidal@hotmail.com,445518289344,,2000,0,0,0,M,cita,
Vazquez, Ita,Aldrich,irvinvazq@yahoo.com.mx,5554314728,,2000,1000,1000,0,M,,
Vazquez,,Anayeli,jan.cruz.reyes7@gmail.com,22076427,,0,1000,0,0,F,,
VAZQUEZ, NUEVO,TANIA ERICKA,jimenez.tlaxcalteca@hotmail.com,5532673934,,2000,1000,0,0,M,,
vazquez, martinez,Karen liseth,karenuni2000@gmail.com,5574943849,,2000,0,0,0,M,,
Vazquez,,Leticia,letyva643@gmail.com,5531007882,5573613152,0,1000,1000,0,F,,
vazquez, carreon,ricardo yael,miros2004@live.com.mx,5535694440,,2000,0,1150,0,M,,
Vazquez, Chavez,Sandra Daniela,multidin-linea12@hotmail.com,5531184144,,2000,0,0,0,M,Cita,0
Vazquez, Valle,Armando,nora.valle1419@gmail.com,44268138,49968339,1000,0,0,0,M,,
Vazquez, Valle,Melissa,Nora.valle1419@gmail.com,44268138,49968339,1000,0,0,0,M,,
VAZQUEZ,,GISELLE PAMELA,pam61@live.com.mx,5539789684,5517971899,0,0,0,1000,C,,
VAZQUEZ,,ADREA ITZEL,patyportuguez2014@hotmail.com,5577271296,,0,0,1000,0,Q,,
Vazquez, Mendez,Paulina Gabriela,paulinavazquez150@gmail.com,5510963042,5537706223,2000,0,0,0,M,,
Vazquez,,Jaime Rodrigo,rooyvm@gmail.com,5516062134,5516062134,0,1000,0,0,F,,
Vazquez, Hernandez,Sandra janely,Sandravazquez2001@outlook.com,5520722575,5533523008,2000,0,0,0,M,,
Vazquez, Huerta,Nadhiesda Ailin,suigintoublackvz20@gmail.com,5515753859,,2000,0,0,0,M,,
Vazquez, Gomez,Fernanda Abril,taniagm140@gmail.com,55425854,5570477815,500,0,0,0,M,,
Vazquez, Avila,Silvia Irais,VaazAv16@Outlook.es,5516446517,5572310985,2000,0,0,0,M,Cita,0
VAZQUEZ, LOPEZ,VANESSA MONSERRAT,vazquezlopezvanessam@gmail.com,5545878960,,2000,0,0,0,M,,
Vázquez, Peña,Rodrigo Adrián,adriano200504@gmail.com,5577369504,,2000,0,0,0,M,,
Vázquez, Martinez,Lorena Alessandra,aless.barret14@gmail.com,5527363896,5510604064,2000,0,0,0,M,,
Vázquez, Armendariz,Daniela,danielavazquez387@gmail.com,5583557130,,500,0,0,0,M,,
Vázquez, Reyes,Daniel,Davare_1999@hotmail.com,5525606999,5581529554,2000,0,0,0,M,,
Vázquez, Saucedo,Donovan ulises,Dnmvv69@gmail.com,5528030242,5525724739,2000,0,0,0,M,,
Vázquez, Rodriguez,Evelyn Juliana,evelynvazquez0908@gmail.com,57006623,445585049848,2000,0,0,0,M,,
Vázquez, Jiménez,Luisa Fernanda,fernandavazjim@gmail.com,22270822,5520513557,2000,0,0,0,M,,
Vázquez, Cordero,Josué Gael,gaelvazcor@gmail.com,5540316320,56779787,2000,0,0,0,M,,
Vázquez, Castillo,Mariel Alessandra,gcauchio@gmail.com,55141412162,5571091312,2000,0,0,0,M,,
Vázquez, Nuevo,Evelyn Denisse,jimenez.tlaxcalteca@hotmail.com,5532673934,,2000,0,1000,0,M,,
Vázquez, López,Karen,KarVazlo222@hotmail.com,7122357831,7122357831,2000,0,0,0,M,,
Vázquez, Olvera,Cristina,kitty_2001_7@hotmail.com,5510591798,5526647357,500,0,0,0,M,,
Vázquez, Viveros,Leyda,leydiviveros98@gmail.com,53069456,5537589045,2000,1000,1000,1000,M,Cita,0
Vázquez, Solis,Lidya Gabriela,lidiasolisper@outlook.com,445571137103,445586012068,500,0,0,0,M,,
Vázquez, Hoyos.,Lizet,lizvazhoy@gmail.com,5568741612,,2010,0,0,0,M,,
Vázquez, Castillo,Luis Octavio,luitavo15@gmail.com,5576066060,5527652366,2000,0,0,0,M,,
Vázquez, González,Brenda Monserrat,monseben@yahoo.com.mx,5513769169,5528796101,2000,0,0,0,M,Cita,0
Vázquez, Miranda,Yael Antonio,naye.vazquez@hotmail.com,5540131701,,2000,0,0,0,M,,
Vázquez, Vázquez,Leticia,palex.vav.78@gmail.com,53928088,,2000,0,0,0,M,,
Vázquez, Mejía,Rodrigo,rooyvm@gmail.com,5532816155,,1800,0,0,0,M,,
Vázquez, Villa,Alan,thenewalan4@gmail.com,5563573273,,2000,0,0,0,M,,
Vázquez, Cayetano,Ruth Jocelyn,vazquezruth110@gmail.com,5565379195,58205084,2000,0,0,0,M,,
Vázquez, Vieyra,Maximiliano,vj_xochith@yahoo.com,5555697039,5514072831,2000,0,0,0,M,,
Vega, Sánchez,Aldo Jesús,Aldojimenaleti@gmail.com,445523135066,,2000,0,0,0,M,,
Vega, Sanchez,Angel isaac,angelvsanchez98@gmail.com,5569668835,70948277,1000,0,0,0,M,,
Vega, Vega,Andrea,ann08vega@gmail.com,5577436046,5554961550,2000,1000,1000,0,M,,
Vega, Estrada,Ana Laura,annievgg11@gmail.com,5587998942,5512436103,2000,0,0,0,M,,
Vega, Velázquez,Azul Nicole,azulnicolevegavelazquez@gmail.com,5535730261,5535730261,2000,0,0,0,M,Cita,0
Vega, Benito,Britany Kaory,beckajenni@gmail.com,58038689,5518084790,500,0,0,0,M,,
Vega, Reza,Alan Rodrigo,ednareza@hotmail.com,70233309,9831096476,2000,250,250,0,M,,
Vega, Lugo,Erika Elizabeth,elizabehlugo@yahoo.com,57490448,5564102918,2000,1000,1000,0,M,Cita,0
vega, macias,sara,Fabymac68@gmail.com,5533336598,,2000,0,0,0,M,,
Vega, Cruz,Jesús Ernesto,Jesus991960@gmail.com,5558886913,5523115183,2000,0,0,0,M,,
VEGA, MORENO,LUZ MARIANA,luzmarianavemo@gmail.com,55292599,445537295843,2000,0,0,0,M,,
vega, Salas,Juan Fernando De la,quechasalas@gmail.com,5533590652,5533581158,2000,0,0,0,M,,
vega, salas,quetzalli de la,quechasalas@gmail.com,5533590652,5533581158,2000,0,0,0,M,Cita,0
Vega, Velazquez,ZuriSadai,SadaiVega1308@hotmail.com,5545269614,5545182316,2000,0,0,0,M,,
Vega, Ledezma,Sofia,sofvegaled@gmail.com,5525747211,,2000,0,0,0,M,,
Vega, Nájera,Lourdes,vegalulu74@hotmail.es,43310657,,2000,0,0,0,M,,
vega, sanchez,paola lizbeth,vegapaola0718@gmail.com,5540157756,5516486864,2000,0,0,0,M,,
Vega, Reveles,Viviana Ivet,Yuriria1@live.com.mx,5536355479,5559529339,2000,0,0,0,M,,
Vela, Becerril,Angelina,Angelinavela04@gmail.com,5525193451,5559663900,500,0,0,0,M,,
Vela, Marin,Angel,marcodivela22@gmail.com,5520805054,70260840,2000,0,0,0,M,,
VELARDE, SANCHEZ,DANA,danavelarde2004,5540064638,5531901646,2000,0,0,0,M,,
Velasco, Arenas,Miguel Angel,angel1820195@gmail.com,5526630946,7731242288,2000,0,0,0,M,,
Velasco, Sandoval,Gustavo,cruzsandoval_a@hotmail.com,555124615,445537314177,2000,0,0,0,M,,
Velasco, Santiago,Carla Mariana,cvelascosantiago@gmail.com,5581208156,5566677378,2000,1000,0,0,M,,
Velasco, Casanoiva,Víctor Hugo,imonroyg@cultura.gob.mx,5554168949,22078084,500,0,0,0,M,,
Velasco, Hoyos,Emily Michelle,jazminhoyos79@hotmail.com,5520021706,5554960817,300,0,0,0,M,,
Velasco, Tavares,Gemima Nohemi,mejia.clara.tavares@hotmail.com,5539622927,75803241,2000,1001,0,0,M,,
Velasco, Robles,Juan Carlos,rrolarte@hotmail.com,57541607,5522965899,2000,0,0,0,M,,
Velasco, Severiano,Axel David,vaxeldavid@gmail.com,5563576132,,500,0,0,0,M,,
Velasco,,Julio Cesar,w.marilu.usa@hotmail.com,5542375163,,0,0,0,1000,C,,
velaso, santiago,mario isaias,velascohernandezmario18@gmail.com,9512880299,9512552806,2000,0,0,0,M,Cita,0
Velasquez, Armenta,Miroslaba,lizmo58@hotmail..com,5511909776,59583364,2000,0,0,0,M,,
VELAZCO, GARCIA,ALAN GERARDO,lolagonzalez2323@gmail.com,5519590142,5524740885,2000,0,0,0,M,,
Velazquez, Gonzalez,Alan mauricio,alanmauricio82@gmail.com,5563362500,5554437435,500,0,0,0,M,,
VELAZQUEZ, ABAD,DANIELA ALEXANDRA,danyalex0804@gmail.com,57746316,5529035968,2000,0,0,0,M,,
Velazquez, Zavala,Bryan,Edgardovs@hotmail.com,71616385,445582280285,2000,0,0,0,M,,
Velazquez, Cruz,Brenda,gabinove04@yahoo.com.mx,5549642633,55677524,2000,0,0,0,M,,
Velazquez, Sandoval,Itzel,Itzelvels@outlook.com,5542839445,5536507572,500,0,0,0,M,,
Velazquez, Ramirez,Jonathan,Jhon8442@gmail.com,5539050371,57523076,2000,0,0,0,M,,
velazquez, razo,Isai Emiliano,marisol_razo@yahoo.com.mx,5512330616,83742274,2000,0,0,0,M,,
Velázquez, Ramírez,Karla Lorena,angeles.velazquez@logisticasit.com,5569613835,7791117576,2000,0,0,0,M,,
Velázquez, González,José Ángel,angelvelazquezg7777@gmail.com,5520865079,5585984591,2000,0,0,0,M,,
Velázquez, Maya,Diego Alberto,ca_fe_di_ma@hotmail.com,5545288474,66482143,200,0,0,0,M,,
Velázquez, García,Federico,fvelazquez_medina@hotmail.com,5537365151,5528808782,2000,0,0,0,M,,
Velázquez, Hernández,Mateo,gabytaz041274@hotmail.com,57144210,5551544929,500,0,0,0,M,,
Velázquez, Chirinos,María Fernanda,gale_1989@hotmail.com,58660209,5582402080,2000,0,0,0,M,,
Velázquez, Cano,Joan Antonio,joanv318@gmail.com,5532019694,5514861012,2000,1000,0,0,M,,
Velázquez, Massa,Renata Kalidh,kalidh.massa17@gmail.com,5572165490,5574603240,1000,0,0,0,M,,
Velázquez, Hernández,Carolina Candy,magdahdz_74@hotmail.com,5510978720,,2000,0,0,0,M,,
Velázquez, García,Francisco Emiliano,pacou035@gmail.com,7774933490,57114470,2000,0,0,0,M,Cita,0
Velázquez, Padilla,Ricardo,ricky21messi@hotmail.com,7821202788,,2000,0,0,1000,M,,
Velázquez, Juárez,Montserrat,velazquezjuarezmontserrat@gmail.com,5527570489,5541396512,500,0,0,0,M,,
Velázquez, Olascoaga,Lizeth Sarahi,ventas05doom@hotmail.com,5513955043,55612856,2000,0,0,0,M,,
Veloz, Mendoza,Yamilet Zulema,velozyamilet@gmail.com,5539920823,,2000,0,0,0,M,,
Vences, Jiménez,Susan Alejandra,alejimenez_71ramirez@hotmail.com,5530307386,5584298655,2000,0,0,0,M,,
venegas, castillo,froylan,froylanvc15@hotmail.com,5951021320,5959546014,2000,0,0,0,M,,
Venegas, Guízar,Victoria Celeste,vicky_tory@live.com.mx,5576387346,,500,0,0,0,M,,
Ventura, Rodríguez,Ricardo Daniel,dan.rodri35@gmail.com,5582359779,55489240996,2000,0,0,0,M,,
Ventura, Gerónimo,Araceli,gerard_ar@hotmail.com,5584435502,,500,0,0,0,M,,
Ventura, Anselmo,Osmar joel,jfruizmaravillo@gmail.com,5571083291,,2000,0,0,0,M,,
Ventura, Noguez,Jonathan ivan,jocelyndeya31@gmail.com,5551497073,,500,0,0,0,M,,
Ventura,,Isaac,rvpantaleon@hotmail.com,5531926992,5517042470,0,0,0,1000,C,,
Ventura, Godínez,David,vid_ventura@hotmail.com,5535564909,5543676481,2000,0,0,0,M,Cita,0
Vera, Zavala,Valeria Elena,elena.24oct@gmail.com,5529627988,5520726151,2000,0,0,0,M,,
Vera, A,Fernanda Lizette,ferlizvera7@gmail.com,5516553312,,2000,0,0,0,M,Cita,0
Vera, Rios,Miriam Monserrat,joce.233.jl@gmail.com,445522503022,70920842,2000,0,0,0,M,,
Vera, Angeles,Mariana Dalai,lilianaangeles411@gmail.com,5561902031,5510704749,2000,0,0,0,M,,
Vera, Guerrero,Betzaida,Mary_guerreroa@hotmail.com,5534210131,5573523018,500,0,0,0,M,,
Vera, Hernandez,Valeria,mhernandez_zarate@hotmail.com,5521288395,5671788686,2000,0,0,0,M,,
Vera, Martinez,Owen abdiel,noram3846@gmail.com,5569690228,5544224243,2000,0,0,0,M,Cita,0
Vera, Martínez,Alma Guadalupe,Veraalma7@gmail.com,5527534547,5547919547,2000,0,1000,0,M,cita,0
Verde, Barrera,Ariadna montserrat,mandy_ari@hotmail.com,5543197934,,2000,0,0,0,M,,
Vergara, Cervantes,Carla fernanda,Cervantesaurea73@gmail.com,5548886930,5530515209,2000,0,0,0,M,,
Vergara, Calzada,Danna Sofia,virolical@hotmail.com,5567514971,21577345,2000,0,0,0,M,,
Vez, Pablo,Enid Dior,itzsel@hotmail.com,53198683,,2000,0,0,0,M,Cita,0
Vicente, Pérez,Israel,beretec18@gmail.com,5568177762,5531586410,500,0,0,0,M,,
Vicente,,Karla Monserrath,monthkrad@gmail.com,5510977217,5521938742,0,0,0,1000,C,,
Victoria, Robledo,Alejandro,karlarommi@gmail.com,5582143927,68382708,2000,0,0,0,M,,
Victoria, Andrade,Natalia Alhelí,naty34andrade@gmail.com,5537917586,5543051443,2000,0,0,0,M,,
Victoria, Lopez,Jennifer,prinsesitahermosa78@outlook.es,445520703144,5520485928,2000,0,0,0,M,,
VICTORIANO, LUCERO,ANA KAREN,karen.vi.lucero17@gmail.com,5572087700,5554574283,2000,0,0,0,M,,
Victoriano, Santiago,Alfredo,yulivonne1974@gmail.com,5539326275,26360401,2000,0,0,0,M,,
Victorino, Dionisio,Daniela Maria,dino_04@live.com.mx,553287880,20755057,2000,0,0,0,M,,
Vicuña, Gonzalez,Citli Yolotzin,citli.gonzalez.04@gmail.com,5527975599,,2000,1000,0,1000,M,Cita,0
Vidal, Sierra,César Leonardo,Erikavidals05@gmail.com,5530509884,59727778,2000,0,0,0,M,,
Vidal, Alvarado,ROSA GUADALUPE,guadalupevidal_alvarado@hotmail.com,57040478,5525080489,2000,1000,0,0,M,,
Vidal, Chavez,Julio,jokegold47@hotmail.com,5559313055,5542859423,2000,0,0,0,M,,
Vidal, García,Anahí,vidal98anahi@gmail.com,5533517824,5524989145,2000,0,0,0,M,,
Vidales, Perez,Diana Itzel,Itzelvidaes@gmail.com,5580048364,5525402353,200,0,0,0,M,,
vidauri, diaz,fernando,fernandovidauri@gmail.com,21612002,5549469352,2000,0,0,0,M,Cita,0
Vidaurri, Leal,Alejandro,alexnacional70@gmail.com,7225583578,7225730182,2000,0,1000,0,M,Cita,0
Viedma, Vazquez,Daniela,adrian.viedma@gmail.com,5544737541,5563026008,2000,1000,0,0,M,,
Viesca, Jara,Abigail,anaruthjarapontifes@hotmail.com,5534886732,5568699894,500,0,0,0,M,,
Vieyra, Perez,Misael,globy761@gmail.com,5542157826,20000000,1000,0,0,0,M,,
Vieyra, Pérez,Samuel,globy761@gmail.com,5542157826,5569386394,2000,0,0,0,M,,
Vigueras, González,Daniel,dvigueras11@hotmail.com,5565551054,5581539395,2000,0,0,0,M,,
Vigueras, Castillo,Pamela Yurani,pamevc22@hotmail.com,5581311387,,2000,0,0,0,M,Cita,0
Vilchis, Santillan,Guadalupe,gghj1213@gmail.com,5532369737,5514425401,2000,200,0,0,M,,
Vilchis, Ríos,Mariana,lety30rios@gmail.com,5531385779,,1000,0,0,0,M,,
Vilchis, Colin,Lissete,lissetevilchis1@gmail.com,5584112403,5516798672,2000,1000,0,0,M,Cita,0
Vilchis, Bautista,Raul,nodiscriminacion64@gmail.com,5529954869,5515995304,2000,0,0,0,M,,
Vilchis, Rivera,Naomi,silemsimon11@hotmail.es,5531907092,13261718,2000,0,0,0,M,Cita,0
Villa, Hernández,Francisco Armando,h_pfabiola@outlook.com,5554341744,,500,0,0,0,M,,
Villa, Zenón,Patricia Ibett,ibetzitap.0805@hotmail.com,7131151243,,2000,0,1001,1000,M,Cita,0
Villafaña, Sanchez,Kanek,espíndola_rio@hotmail.com,5959313016,5959543023,2000,0,0,0,M,,
Villafañe, Ruelas,Regina,ranitarure@gmail.com,5527202002,,2000,0,0,0,M,,
Villafuerte, Feria,Andrea Joseline,andreus_villa@hotmail.com,5534080577,5564971052,2000,0,0,0,M,Cita,0
Villagran,,Michelle Estephanie,estephkpop@gmail.com,5525177404,,0,0,0,1000,C,,
Villagrán, Ojeda,Víctor Manuel,Cr7vmvo24@gmail.com,5544892842,5575172563,2000,0,0,0,M,Cita,0
Villalba, Sánchez,Adrián Axel,docnaelip03@hotmail.com,5539037399,5531223209,2000,0,0,0,M,Cita,0
Villalba, Rosas,Itzell,itzellvdr1206@hotmail.com,5568074176,5561136114,2000,0,0,0,M,Cita,0
VILLALBA, BARRUETA,ANGEL ADRIAN,rossfashion7@gmail.com,58104246,5543610031,2000,0,0,0,M,,
Villalobos,,Madelinne,beatles.1960@hotmail.com,5523251703,5523251703,0,0,0,1000,C,,
Villalobos, Martinez,Zyhanya,zyhanya@hotmail.com,445516967037,445532233789,2000,0,1000,0,M,,
Villalva, Dominguez,Pilar Alondra,ween29@hotmail.com,25930165,5542680336,2000,1000,1000,0,M,,
villamil, garcia,jessica citlalli,jhennifergarcia7@gmail.com,5559974781,59945460,2000,1000,0,0,M,,
villanueva, estudillo,ANGELES ITALIBIS,2italiavillanueva@gmail.com,5573914536,,2000,0,0,0,M,cita,0
Villanueva, Estudillo,Gisela,2italiavillanueva@gmail.com,5567837724,,2000,0,0,0,M,Cita,0
Villanueva, Cerón,Angel,fabiola.ceron@hotmail.com,53121113,5516995812,500,0,0,0,M,,
Villanueva, Maldonado,Alan Fernando,karengmr776@gmail.com,5580898201,96902494,2000,0,0,0,M,,
Villanueva, Cadenas,Juan Manuel,villanuevajuanmanuel676@gmail.com,7331347161,6760668,2000,1000,1000,0,M,Cita,0
Villar, Cantu,Juan Carlos,carlos00cantu@gmail.com,5578673440,,2000,0,0,0,M,,
Villar, Maldonado,Daniel,Daniel.villar.357@gmail.com,5527124978,53692896,500,0,0,0,M,,
Villar, López,Cristopher Owen,fervm_02@hotmail.com,71574678,5576196106,500,0,0,0,M,,
Villar, Lopez,Jonathan Fernando,fervm_02@hotmail.com,5576196106,,500,0,0,0,M,,
Villar,,Ricardo,Slayernci@gmail.com,5535868648,53692896,0,0,0,1000,C,,
Villarreal, Rodriguez,Monica Alejandra,geminis24448@yahoo.com.mx,5551949466,,2000,0,0,0,M,,
Villasana, Santiago,Marco Alejandro,asantiago_5@hotmail.com,9931919581,9935903831,2000,0,0,0,M,,
Villasana,,Marco Alejandro,malejandrovillasana@live.com.mx,9933476297,9931919581,0,1350,0,0,F,,
Villaseñor, Vargas,Karen michelle,lucy.vark@hotmail.com,63652549,5521176331,250,0,0,0,M,,
Villaseñor, Mondragon,Cristian Owen,marce_uye@hotmail.com,5523247804,5543395871,2000,0,0,0,M,,
Villatoro, Pérez,Gerardo,flordilia7@gmail.com,7774935495,3820424,500,0,0,0,M,,
Villatoro, Monroy,Monserrath,rayuelamonroy @live.com.mx,5511998081,5511998081,2000,0,0,0,M,,
Villavicencio,,Daniel,danielvillavicencio7@icloud.com,5547596801,5570979781,0,0,0,1000,C,Cita,0
Villavicencio, Muñiz,Tania Ivonne,vnshdshd999@gmail.com,43258602,5545429349,2000,0,0,0,M,,
Villeda, Martínez,Jimena,Villedamtz1991@yahoo.com,5518122336,36286814,2000,0,0,0,M,,
Villeda, Martínez,Maricarmen,Villedamtz1991@yahoo.com,5583709355,5518122336,2000,0,0,0,M,,
Villegas, Hernández,Angel De Jesús,antarescesar@hotmail.com,77004047,5577955592,2000,0,0,0,M,cita,0
Villegas, Miranda,Arantza,Arantzyta@hotmail.com,59966841,5564705240,2000,0,0,0,M,,
Villegas, López,Osvaldo Dominic,fantaciax@hotmail.es,5536535730,26171247,2000,1000,0,0,M,Cita,0
Villegas, Gutierrez,Gael Ian,normafamily68@gmail.com,5591652278,,200,0,0,0,M,,
Villegas, Lopez,Ricardo,ricardo_vl_99@outlook.es,7731669553,,2000,0,0,0,M,Cita,0
Villegas,,Veronica,veritodejos_canela@hotmail.com,5512242230,5549070617,0,0,0,1000,C,,
Villordo,,Lesly Nayeli,lnvh.5063160215@cbt2tecamac.edu.mx,5582585012,5532689294,0,0,0,1000,C,,
Virgilio, Gonzalez,Exelyn,nuvel_buy@outlook.com,5538100083,,2000,1000,0,0,M,Cita,0
Viruel, Franco,David,davidfranco100@hotmail.com,5516437718,5515050828,2000,0,0,0,M,Cita,0
VIRUEL, FRANCO,MARIEL,davidfranco100@hotmail.com,5515050528,5524924277,2000,0,0,0,M,,
VITE, Jiménez,Ángel Erick,sandybell0603@hotmail.com,5537423826,5573709546,1000,0,0,0,M,,
Vite, Cortes,Ernesto,viteernesto9@gmail.com,5530495204,5516467854,500,0,0,0,M,,
Vite, Guzman,Manuel,yeya762@hotmail.com,5514774599,58226272,500,0,0,0,M,,
Vivas, Martinez,Marcos Benito,marcosvivasmartinez@gmail.com,7352832657,5547860304,2000,0,0,0,M,Cita,0
Viveros, Mendoza,Andrei,andreivive999@hotmail.com,5575011613,5511385814,2000,0,0,0,M,,
Viveros, Nava,Jocelyn,jocelynvina@icloud.com,5523484789,,2000,0,0,0,M,Cita,0
viveros, rios,ana karen,karen.viveros.1998.2001@gmail.com,5539390902,62772194,2000,1000,0,0,M,,
Viveros, Jimenez,Luis Eduardo,lorejimenez_martinez@hotmail.com,5537275270,15585265,2000,0,0,0,M,,
Viveros, Carcamo,Mayra,Mayravive@hotmail.com,5565100255,,2000,0,0,0,M,Cita,0
Viveros, Hernández,Rodrigo,rodrigoviveros360@gmai.com,5564565502,5543287951,2000,0,0,0,M,Cita,0
Viveros, Rivera,Ángel Pedro,Viverosriveraa@gmail.com,5538476265,,2000,0,0,0,M,,
Viveros, Ceron,Selenne,zelenne.1551@gmail.com,53684006,5540283244,2000,0,0,0,M,,
Vizcaya, Sanchez,Guillermo,Sofiasanchezflores40@gmail.com,21551295,5547933972,2000,0,0,0,M,,
Weber, Navarijo,Lenny Patrick,alinava45@hotmail.com,5510483579,,2000,0,0,0,M,,
Wong,,Abril,abrilwong21@gmail.com,5534023231,5544377780,0,0,0,1000,C,,
Xicotencatl, Cruz,Alondra,cheliza11@hotmail.com,5539161712,54296792,2000,0,0,0,M,Cita,0
Yañez, Guadarrama,Miguel Josafat,Bestia_cable@hotmail.com,5560452892,5530052763,500,0,0,0,M,,
Yañez, Ramos,Wilmar Omar,deviel.dr@gmail.com,68131379,5536105429,2100,0,0,0,M,,
Yañez, Martínez,David Alejandro,fyvarela@hotmail.com,5528590357,5518687434,2000,0,0,0,M,,
Yañez, Jimenez,Marifer Aylin,j.ivan9@hotmail.com,5554502228,,500,0,0,0,M,,
Yañez, Lopez,Estefanía,Klausguzm@hotmail.com,5543685946,,2000,0,0,0,M,cita,0
Yáñez, Rueda,Cinthya,Candelaria_yaez_scc@yahoo.com.mx,55359542,5536461456,2000,0,1000,0,M,,
Yáñez, Martínez,Stefany,fanymtzup@gmail.com,5513495264,5528590357,2000,0,0,0,M,,
Yáñez, García,Hugo Eduardo,hugopabo2005@gmail.com,59240639,5539570853,2000,0,0,0,M,,
Yera, Espindola,Luis Cristobal Perez,claudiaespindola@yahoo.com.mx,5535644809,5528794358,2000,0,1000,0,M,,
Yescas, Olvera,Ivan Alexei,ivanyescasolvera@outlook.com,5525640541,5527366801,2000,1001,0,0,M,,
Yescas, Muñoz,Ricardo,ricardoponce88@hotmail.com,5569121061,,2000,0,0,0,M,,
Ygueldo, Garcia,Carlos Alberto,carlosygueldo@gmail.com,7222531887,7223968351,2000,0,0,0,M,cita,0
Ygueldo, Garcia,Sámara Jhoana,samygueldo@gmail.com,7223899529,7222531887,2000,0,0,0,M,Cita,0
Zabat,,Miguel,adriana-avalos@hotmail.com,35477112,5540944278,0,0,1000,0,Q,,
Zacarías, Moreno,Alyn Michel,alyn.moreno@outlook.es,5569649672,57361908,200,0,0,0,M,,
Zacate, Ponce,Ivan Emanuel,Sandra1234PonceV@gmail.com,5951044037,5546787611,2000,0,0,0,M,,
ZACATECAS, OROZCO,OSCAR,clauorozcoibarra@hotmail.com,5524365203,5515979809,1000,1001,0,0,M,,
ZACATECAS, OROZCO,VICTOR DAVID,clauorozcoibarra@hotmail.com,5524365203,5515979809,1000,0,0,0,M,,
Zacatecas,,David,davidzorozqko123@gmail.com,5511358616,5515979809,0,1001,0,0,F,,
Zacatelco, Sánchez,Jesús Ulises,uzacatelcos@gmail.com,2211873027,2890122,2000,0,0,1000,M,,
ZAID, MUÑOZ,ANDRES,sandybelula@hotmail.com,5546349279,,500,0,0,0,M,,
Zalib, Cornejo,Gibrán Jalil,gibranjalil@live.com,5554135360,52901985,2000,0,0,0,M,,
Zambrano, Rios,Alondra Isabel,lonaalmighty@gmail.com,5527242453,26160319,2000,1000,0,0,M,Cita,0
Zamora, Melo,Angel,alooangel12@gmail.com,5548216088,5548960606,2000,1001,0,0,M,,
Zamora, Campos,Brenda Michelle,brendamzc20@gmail.com,5545736418,52774521,2000,0,0,0,M,,
Zamora, Ruiz,Elizabeth Estefania,ely2001_1@yahoo.com.mx,5524084959,5538298266,2000,0,0,0,M,Cita,0
Zamora,,Jesus,mmillan.sma@gmail.com,5534685983,,0,1000,0,0,F,,
Zamora, Feregrino,Varinia,rocío.femo@hotmail.com,5523176850,5523176850,2000,0,0,0,M,,
Zamora, Gonzalez,Mariana Montserrat,Silvia201416@gmail.com,5576506195,5531740076,2000,0,0,0,M,,
ZAMORA, VEGA,NESTOR EMMANUEL,veroarmonia.10@gmail.com,5523049396,5530478529,2000,0,0,0,M,,
Zamora, Domínguez,Joan salvador,Zamorajoan9@gmail.com,5542306160,5543446161,2000,0,0,0,M,,
Zamorano, Jimenez,Valeria,ara.jt86@gmail.com,5569822412,5533444351,2000,0,0,0,M,,
Zamudio, Sandoval,Michelle Araceli,sandovalmichell08@gmail.com,21573105,,2000,500,0,0,M,,
Zanabria, Granados,Casandra,Claugragon@gmail.com,5514192664,5568626143,2000,0,0,0,M,,
Zapata, Cabrera,Jafet Uriel,contacto@percianasdecorativas.com.mx,5559538647,5538820491,500,0,0,0,M,,
Zapata, Pérez,Leonardo,guadalupe-figueroa18@hotmail.com,5548773779,101010110,200,0,0,0,M,,
Zapote, Hernández,Etan Francisco,Supermalezas@hotmail,5585730250,5516501243,2000,0,0,0,M,,
Zaragoza, Tobón,Abraham,abraham_zaragoza_zata@hotmail.com,5566245663,,2000,0,0,0,M,,
Zaragoza, Nava,Abraham Isaac,abrahamzaragoza234@gmail.com,721353825,,2000,0,0,0,M,,
Zaragoza, Quiroz,Diana karen,inmujerecatepec01@gmail.com,5579074057,,200,0,0,0,M,,
Zaragoza, Reséndiz,Marco Antonio,ogrishdoor@live.com.mx,5585400258,5524900262,500,0,0,0,M,,
Zarate, Olivares,Irvin Alejandro,alejandroolivares@outlook.com,5541936286,5518469378,3500,0,0,0,M,,
zarate, cruz,miguel angel,miguelzaratecruz118@gmail.com,57386383,5512967765,2000,0,0,0,M,,
Zarate, Reyes,Raciel,racielzaratereyes@gmail.com,26033218,5513081278,500,0,0,0,M,,
Zárate, Infante,Elizabeth,eli91506@gmail.com,5571427950,5557692040,500,0,0,0,M,,
Zárate, Zárate,Rebeca Angélica,kikapau44@gmail.com,16750032,445515685277,500,0,0,0,M,,
Zaraut, Gracida,Daniel,zarautdniel7u7@gmail.com,445564794227,445530728287,2000,0,0,0,M,,
Zarco, Saldaña,Vania Noemi,jessysal26@hotmail.com,5523008579,57662017,2000,1000,0,0,M,,
zarinan, garcia,julio,juliozaga1599@gmail.com,5514780762,26262180,500,0,0,0,M,,
Zarrabal, Garcia,Valeria,nancy19852711@gmail.com,5582240652,559352136,2000,0,0,0,M,,
Zarraga, Santana,Belen,reyna_ovan@hotmail.com,5584738363,,1000,0,0,0,M,,
Zavala, Gallegos,Alejandro,alejandrozavalagallegos@gmail.com,5545573691,,2000,0,0,0,M,,
Zavala, Luna,Omar Sebastián,Omar.zalu@gmail.com,558500449,5554226709,2000,0,0,0,M,,
Zavaleta, Ortiz,Hassan Enrique,hassan.e.z-03@hotmail.com,7352069753,,2000,0,0,0,M,,
Zavaleta, Hernandez,Jessica,zabaletajessi18@gmail.com,70942574,,2000,0,0,0,M,,
Zayas, Perales,Gina Michelli,ginna.perales@gmail.com,5511902666,5527290547,2000,0,0,0,M,,
Zendejas, Aguilar,Sthepani,Fanitozendejas@gmail.com,5524615876,16654244,2000,0,0,0,M,,
Zenil, Romero,Nadia Elizabeth,nadis-2000@hotmail.com,445571514572,445533892182,2000,0,0,0,M,,
Zentella, Sánchez,María Fernanda,fernadaasanchez31005@gmail.com,5560498605,5516195984,2000,0,0,0,M,,
Zepeda, Cervantes,Carlos Alberto,carloszc205@hotmail.com,5532701824,5512882717,500,0,0,0,M,,
Zepeda, Yniesta,Ivanna,chaparraanaid@gmail.com,5544826007,,500,0,0,0,M,,
Zepeda, Perales,Enrique Yair,enriquezepeda.yp@gmail.com,5951145717,5518563470,2000,0,0,0,M,,
Zepeda, Flores,Hugo,jesushugo.zepedalozano87@gmail.com,5515132291,5514791988,2000,0,0,0,M,,
Zepeda, Gonzalez,Samara Alexandra,samzeg19@yahoo.com.mx,87535655,5552152048,500,0,0,0,M,,
Zeròn, Montes,Michelle,michelle.zeron02@gmail.com,26447302,5512442530,500,0,0,0,M,,
Zugasti, Romero,Brayan Daniel,bray.zugasty@gmail.com,5566352600,5581451586,2000,0,0,0,M,,
Zul, Lopez,Pablo Cesar,pablo.z2@hotmail.com,5538406049,,2000,0,0,0,M,,
Zumaya, Marquez,Leopoldo,marquez.mar4@gmail.com,5544032029,,2000,0,0,0,M,,
Zumaya, Sandoval,MARCO ANTONIO,veroquerubin@yahoo.com,57408416,55819924722,2000,0,0,0,M,,
Zuñiga, Ramirez,Dilan,arcilafide@gmail.com,5530356728,5528577161,200,0,0,0,M,,
Zuñiga, Rivera,Daniela,danielle_dans@outlook.com,5534596477,21664533,2000,0,0,0,M,,
Zuñiga, Dominguez,Jocelin Areli,jozu_09@icloud.com,5561077973,,2000,1000,1000,0,M,Cita,0
Zúñiga,,Ian Sonny,Catalina.vivanco@edenred.com,5545967570,5535759994,0,0,0,1000,C,,
Zúñiga, Álvarez,Abraham Axel,maricelaalvarez268gmail.com,5515598285,76531518,2000,0,0,0,M,,
Zúñiga, Vivanco,Ian Sonny,sonnyqb07@hotmail.com,5535759994,5545967570,2000,0,0,0,M,,
Zúñiga, Santiago,Juan Diego,zunigasantiagojuandiego246@gmail.com,5527090774,5527090774,2000,0,0,0,M,,