Apellido Paterno,Apellido Materno,Nombre,Correo,Teléfono 1,Teléfono 2,$Mate,$Fisica,$Química,$Calculo,NOTA,CITA,Pago Cita
Caballero, Carreon,Karime Massiel,karimecaball@hotmail.com,5566131429,53820317,2000,0,0,0,M,,
caballero, vivanco,daniela michelle,vivancoclaus@gmail.com,5576956694,5529338472,1000,0,0,0,M,,
Cabañas, Salazar,Ricardo,"Cabanasjaim@gmail,com",57811328,5527326015,2000,0,0,0,M,,
Cabañas, Alejandre,Paulette Athsiry,janine82@live.com.mx,36885743,5541263239,2000,0,0,0,M,,
Cabañas, Alejandre,Yael,janine82@live.com.mx,36885743,5541263239,2000,0,0,0,M,,
Cabrera, Chávez,Alejandra,Alsscabrera17@gmail.com,5581465961,5533319700,2000,0,0,0,M,cita,0
Cabrera,,Carlos,carlos_cabrera_ram@hotmail.com,5535925221,5587409055,0,0,0,1000,C,,
CABRERA, OLVERA,hazel alitzel,carmenolvera124@gmail.com,5587812022,,2000,0,0,0,M,,
Cabrera, Moncayo,Carlos Emmanuel,charlyshoore@gmail.com,5584951849,5587159436,2000,0,0,0,M,,
Cabrera, Bernave,Daniel,daniel.delacabra@gmail.com,5564301142,5531081285,2000,0,0,0,M,,
Cabrera, Gómez,Arturo,elideearias@yahoo.com.mx,5562008412,,2000,0,0,0,M,,
Cabrera, Gomez,Edgar Yael,elideearias@yahoo.com.mx,5562008412,0,2000,0,0,0,M,,
Cabrera, Sandoval,Martha patricia,elsaferrer8@gmail.com,5523715016,,2000,0,0,0,M,,
Cabrera, Ramirez,Estefania Yazmin,estefania1_2011@yahoo.com.mx,5535931804,,2000,0,0,0,M,,
Cabrera, Pérez,Felipe Sebastian,jch.inprotel@hotmail.com,65985097,5535006080,2000,0,0,0,M,Cita,0
Cabrera, Sanchez,Marian,mariancase107@gmail.com,57944608,5529534055,2000,0,1000,1000,M,,
Cabrera, Monge,Rodrigo Iván,mongerosalba@yahoo.com.mx,5542221920,5518435244,2000,0,0,0,M,Cita,0
Cabrera, Perez,HECTOR MIGUEL,mp64441@gmail.com,5583434680,83758952,2000,0,0,0,M,Cita,0
cabrera,,martha patricia,patysalvatore8@gmail.com,5572919344,5523715016,0,1000,0,0,F,,
Cadena, Nava,Eva,evacn_60@hotmail.com,70910863,5547318888,2000,0,0,0,M,,
Cadena,,Lizbeth Monserrat,monse_cadena210@hotmail.com,5575021438,56922818,0,1001,0,0,Cita,Cita,0
Cadena, Uriarte,Lizbeth Monserrat,potecadena@hotmail.com,5516000758,5554632417,2000,1001,0,0,M,,
Cadenas, Acevedo,Mayra Lyssette,mayliscadenas@gmail.com,7561199791,7561001522,2000,1000,500,0,M,Cita,0
Caldera, Robles,Diana,caldera_diana@hotmail.com,5583078221,70281306,2000,1000,0,0,M,,
Calderon, Hernandez,Anayeli,anniecalderon96@outlook.com,5510443668,5544695099,2000,1000,0,0,M,,
Calderon,,Luis Gerardo,gerardocalderon1@hotmail.com,5518225881,,0,1000,0,0,F,,
Calderon, Ramirez,Jazmín,Jescarlata.calderon4@hotmail.com,5544816178,,2000,0,0,0,M,,
Calderon, Cuautle,Elizabeth,kisses992201@gmail.com,5523745049,36927891,2000,0,0,0,M,,
Calderon, Martinez,Mauricio,mauriciokyle1@gmail.com,5551592124,,2000,0,0,0,M,Cita,0
Calderon, Flores,Nancy Pamela,pame_calderon.f@hotmail.com,5515137348,5515137348,2000,1000,0,0,M,Cita,0
Calderon, Cabral,Maria Fernanda,rojozarzamora@gmail.com,5545432814,5529598925,2000,0,0,0,M,,
Calderon, Ramírez,Ariana,tatis.ac75@gmail.com,5561292284,,2000,0,0,0,M,,
Calderon, Garcia,Edilia,unamedilia@yahoo.com.mx,5519761796,56194960,2000,0,0,0,M,,
Calderón, Herrera,Alexa,aleneko555@gmail.com,5525690162,59713705,2000,0,0,1000,M,Cita,0
Calderón, Hernández,Claudia Fernanda,cody7u7@outlook.es,5536761005,5562289034,2000,0,0,0,M,,
Calderón, Reyes,Cristo Eduardo,elireyesmedina@gmail.com,5585707235,5561766417,2000,0,0,0,M,,
Calderón, Oregel,Ximena Fernanda,fernanda_oregel1302@outlook.com,5538652242,5577924825,2000,0,0,0,M,,
Calderón, Castañeda,Miriam,Jennytecito@hotmail.com,5518094715,5560672409,2000,0,0,0,M,Cita,0
Calderón, Blanquer,Gayatri Sai,matildeblanquer@yahoo.com.mx,5530363632,5530363632,2000,1000,0,0,M,,
Calderón, Silva,Luis Gerardo,quimika_si@hotmail.com,5532212450,5518225881,2000,0,0,0,M,,
Calderón, Romero,Alberto,vero920@hotmail.com,5539207679,5515026090,2000,0,1000,0,M,Cita,0
Calderón, Torres,Cesar Ezequiel,veronicadctr@yahoo.com.mx,5541900809,,2000,1000,0,0,M,,
Calderón,,Emilio Emir,yadiracalderon916@gmail.com,53349929,5580032042,0,1000,0,0,F,,
Calix,,Ramón,calixramon2000@gmail.com,51144330,5583594231,0,0,0,1000,C,,
Calixco, Zavala,Angel Ramon,ramitas00@outlook.es,5584987497,5518845420,0,1150,0,0,M,,
Callejas, Rivas,Edgar Armando,edgar2004kz@gmail.com,5518278074,5543437938,500,0,0,0,M,,
Callejas, Esquivel,Jesús Octavio,guugletv1@gmail.com,5591613809,5544684074,2000,0,0,0,M,Cita,0
Caltenpa, García,Mauricio,cenosienta@gmail.com,15411074,5583201822,500,0,0,0,M,Cita,0
Calva, Esquivel,Carmina Aurora,carminaaurora@hotmail.com,5539670320,,2000,1000,0,0,M,,
Calva, Martinez,Edgar,edgar_calva11@hotmail.com,7713421636,7711400945,2000,0,0,0,M,,
Calva, Onofre,Jose Angel,joseangelcalono@yahoo.com,5529137542,5515236084,2000,1000,0,0,M,,
calva, miranda,fabrizzio,mcorona@nube.sep.gob.mx,445559308960,,2000,0,0,0,M,Cita,0
Calva, Mendoza,Brenda Jimena,rismen_10@outlook.com,5569692664,29345284,500,0,0,0,M,,
Calzada, Martínez,Laura Xóchitl,laumartinez378@gmail.com,5583275807,5939144634,2000,1000,0,0,M,Cita,0
Camacho, Garcia,Abimael,abi.camacho.g@gmail.com,7911025495,7911103315,500,0,0,0,M,,
Camacho, Ojeda,Miguel Angel,angelccuma103@gmail.com,5554710568,5539033498,2000,0,1150,0,M,Cita,0
Camacho, Escobar,Danae,danaecamacho2508@gmail.com,5541871236,5544498567,2000,0,0,1000,M,,
Camacho, Aguilar,Denesi,denesi136@gmail.com,5515854346,70924012,2000,0,0,0,M,Cita,0
Camacho, Ramírez,Diana Lilian,diana1999211@gmail.com,5584314317,5576153151,500,0,0,0,M,,
Camacho, Luna,Jessica Alixel,elizabeth.trejo@hotmail.com,5528840305,,2000,0,0,0,M,,
Camacho, Ramirez,Rafael,inspi.oir@gmail.com,5519121818,5523415483,500,0,0,0,M,,
Camacho, Luna,Jessica,jessicacamacholuna@gmail.com,55878037,57785744,1500,500,0,0,M,,
Camacho, Sánchez,Luis Enrique,lecamachos040@gmail.com,5540358138,,2000,0,0,0,M,Cita,0
Camacho, Soriano,Yuliet Lisset,Lisset-hermosa@hotmail.com,5584316614,5530833901,2000,0,0,0,M,,
Camacho, Ramirez,Esteban,liv_moore256@hotmail.com,5561368285,5561368285,500,0,0,0,M,,
Camacho, Valencia,Frida,marsistem@yahoo.com,5534424598,5531484623,500,0,0,0,M,,
Camacho,,Mildred,pcamacho_a@yahoo.com.mx,5538839846,,0,0,0,1000,C,,
Camacho,,Sergio Yibrian,yibrian21@gmail.com,5563181679,59884775,0,0,0,1000,C,,
Camaño, Najera,Leonardo,leo_nc99@hotmail.com,5577422286,5516497223,2000,0,0,0,M,Cita,0
Camargo, Zamora,Lorena,angelcamargo845@gmail.com,53913374,5511516826,2000,0,0,0,M,,
Camargo, Apolinar,María Fernanda,apolinarfer.4@gmail.com,5585845815,70230230,500,0,0,0,M,,
Camarillo, Cardenas,Mario Alexander,alexander13.2001@gmail.com,5530266869,,2000,0,0,0,M,,
Camarillo, Cortes,Jocelyn Araceli,yoiz_JACC@hotmail.com,5546613474,5538016970,2000,0,0,0,M,,
Camarin, Carranza,Erick Michael,Erick_skate7@hotmail.com,5572024194,5585703159,500,0,0,0,M,,
Campeche, Calixto,Omar,gabrielacampeche@gmail.com,5520696694,,2000,0,0,0,M,,
Campos, Valerio,Miranda,admire_cam@hotmail.com,5516773701,57147653,2000,1000,0,0,M,,
Campos,,Adriana,adriana.camval@gmail.com,5547596801,57147653,0,0,0,1000,C,cita,0
Campos, Rivera,Alfredo,alcame66@yahoo.com,5548805793,5513002937,2000,0,0,0,M,,
Campos, Melchor,Angel Yair,CampelYair53@hotmail.com,5516654481,5578009630,2000,0,0,0,M,,
Campos, Lopez,Jose Francisco,jc910545@gmail.com,5532330958,24753075,500,0,0,0,M,,
Campos, Piedras,Karla Sofia,kpiedras_03@hotmail.com,5522461124,5547890162,2000,0,0,0,M,,
Campos, Fuentes,Vianey,Little_girl_vianey@hotmail.com,5518345239,5565251191,2000,0,0,0,M,Cita,0
Campos, Galvan,Yerendi Rubi,ramseymichelle@hotmail.com,58407117,445540951102,2000,0,0,0,M,,
Campos, Sanpedro,Emiliano,shesase@hotmail.com,5576649815,5558550524,2000,1000,1000,0,M,Cita,0
campos, hernandez,ximena,wendy-hernandez@hotmail.com,445541316051,445543716030,2000,0,0,0,M,Cita,0
Campuzano, Durán,Lizeth Guadalupe,campuzanoliz615@gmail.com,5515265788,,2000,1150,1000,1000,M,Cita,0
Canales, Collado,Ángel Fernando,angelfernandocanales73@gmail.com,57997225,5569797107,2000,0,1000,0,M,cita,0
Canales,,Hector Jair,hj.lechugac@gmail.com,15514750720,,0,0,0,1000,C,,
Canales, Lozano,Juan Carlos,pao_0377@hotmail.com,5513399100,,500,0,0,0,M,,
Canales, Lopez,Maria fernanda,rojascatherine256@gmail.com,57484297,5530534799,2000,0,0,0,M,,
Candelas, Flores,Andoni Alexei,candelas771@gmail.com,5584296367,5563301424,500,0,0,0,M,,
Candi, Márquez,Abraham,mqmaga@gmail.com,5513379068,65940485,2000,0,0,0,M,,
Candia, Alcántara,Carlos,hbk_12051@hotmail.com,5543941984,,500,0,0,0,M,,
Cano, Cruz,Citlali Guadalupe,citla161015@gmail.com,53000684,5576600311,500,0,0,0,M,,
Cano, Nieto,Elsa Paulina,ElsaPaulina.cano@gmail.com,5554194901,5532390204,2000,0,0,0,M,,
Cano, Escobar,Gabriel,gabriel7770821@gmail.com,5539143550,5536561531,2000,0,0,0,M,,
Cano, García,Cintia Jocelyn,jocelyncano35@yahoo.com,5536748185,50446232,1500,1000,0,0,M,Cita,0
Cano, Maqueda,Misael Josue,Michahii.halliwell28@gmail.com,5561114253,,2000,1000,0,0,M,,
Cano, Pérez,Tanya Ivanna,ptanya748@gmail.com,445537266526,445538088167,500,0,0,0,M,,
Cano, Jimenez,Samuel Isaías,samuelcano@tutanota.com,57545551,5545369266,2500,1000,1000,1000,M,,
Cano, Ceballos,Camila Hazel,vceballos.robles@icloud.com,5527729283,5543191332,2000,0,0,0,M,Cita,0
Cansino, Arias,Adrián,efrencansinodeanda@gmail.mx,5550838938,55626622553,2000,0,0,0,M,,
cansino, Arias,gael,efrencansinodeanda@gmail.mx,55626622553,5550838938,2000,0,0,0,M,,
Cansino, Vásquez,Berenice,vara103@hotmail.com,5564294564,,500,0,0,0,M,,
Cantera, Dávila,Noe,davilar212@gmail.com,445550502912,,2000,0,0,0,M,,
Cantillo, Avalos,Kathia Vianey,katcanti@icloud.com,5533553935,,2000,0,0,0,M,,
Cañizares, Pineda,Eleanne Stephanie,wendy.canizares@hotmail.com,5582210129,5532101418,500,0,0,0,M,,
Caporal, Taffoya,Deyanirah,deyanirah7212@hotmail.com,7531081879,2291364499,2000,0,0,1000,M,,
Caporal, Villarreal,SAÚL,sauulitoo15@gmail.com,2462160478,5566185879,2000,0,0,0,M,Cita,0
Capula, Martínez,Karla,beth.capula08@gmail.com,68393714,,200,0,0,0,M,,
Caraveo,,Sharon Lizbeth,sharoncarabella@gmail.com,5543893297,57126171,0,0,0,500,C,,
Carbajal, Bárcenas,Aarón,aaroncarbajal419@gmail.com,5526556326,5585492851,1000,0,0,0,M,,
Carbajal, RODEA,Alberto,acarbajalrodea@gmail.com,22072319,5516018447,2000,1000,1000,0,M,,
Carbajal, Gonzalez,Danna Aime,carb_crr75@hotmail.com,5523840158,,2000,0,0,0,M,Cita,
Carbajal, Diaz,Michelle,Corazonsito322@gmail.com,5569747049,5517731490,2000,0,0,0,M,,
Carbajal,,Julio Cesar,depredador_a89@hotmail.com,5516018447,5520109535,0,1000,1001,0,F,,
Carbajal,,Itzel,itzel.carbajal.o@hotmail.com,7223757678,5531975119,0,0,0,1000,C,,
Carbajal,,Verónica,veroc455@gmail.com,58125053,5570646365,0,0,0,1000,C,,
Carballo, Ortega,Ximena,lucero_49@hotmail.com,71566064,5512381335,2000,0,0,0,M,Cita,0
Cardenas, Andrade,Luis Antonio,cardenas_571@hotmail.com,5537318202,5531165116,2000,0,0,0,M,,
Cardenas, Guerrero,Antonio David,david_cone@outlook.es,5539026055,,2000,0,0,0,M,,
Cardenas, Guerrero,Carlos Antonio,david_cone@outlook.es,5539026055,,2000,0,0,0,M,,
Cardenas, Escobar,Lizbeth,lizbethcardenase@gmail.com,5586166546,,2000,1000,0,1000,M,Cita,0
Cardenas, Guerrero,Viridiana,luzmarianacardenas123@gmail.com,5587600586,,2000,0,0,0,M,,
Cardenas, Palacios,Abraham,nph2012@yahoo.com.mx,5525638513,5519481503,500,0,0,0,M,,
Cardenas, Mejia,Gabriela,veroni2330@gmail.com,5533319107,,2000,0,0,0,M,,
Cárdenas, Ramírez,Carlos,carcarden5@gmail.com,55721931,,2000,0,0,0,M,,
Cárdenas, Calderón,Daniela Irán,danielairan.cardenas,5578125051,5514779506,2000,0,1000,0,M,Cita,0
Cárdenas, Serrato,Edgar,edgarcs1234@outlook.com,5591087748,5547933361,500,0,0,0,M,,
Cárdenas, Guerrero,Luz Mariana,luzmarianacardenas123@gmail.com,5587600586,5529350202,2000,0,0,0,M,,
Cardeña, González,Brayan Alexis,alexis.711@outlook.com,5575030822,5517062915,500,0,0,0,M,,
Cardona, Hernández,Napoleón,nch_0707@hotmail.com,5580504130,,2000,0,0,0,M,,
Cardoso, L,Irene,irene.alejandra@outlook.com,5536423949,,500,0,0,0,M,,
Carlos, Ortega,Fátima Pamela,pamela2900@live.com,5540580031,5541894334,2000,1000,0,0,M,Cita,0
Carmona, Bojorquez,Janet,alejo21071@hotmail.com,445531373184,53063419,2000,0,0,0,M,,
Carmona, Fierros,Mariana,conejita_lalito_@hotmail.com,5530417395,58631778,2000,0,0,0,M,,
Carmona, Castillo,Eduardo,eduardocc0407@gmail.com,5586168117,,2000,0,0,0,M,,
Carmona, Vázquez,Jessica,Jeessi11vazquezcar@gmail.com,5565544544,,2000,0,0,0,M,,
Carmona, Montiel,Axel,lilablue27@hotmail.com,5540974175,5536557455,500,0,0,0,M,,
Carmona, Montiel,Misael,lilablue27@hotmail.com,5540974175,56680740,500,0,0,0,M,,
Carmona, Trujillo,Liliana Guadalupe,liligct_@hotmail.com,17224615,5574734385,2000,0,0,0,M,,
Carmona, Manjarrez,Diego,manjarrez.12300@hotmail.com,7224125697,7224609754,2000,0,0,0,M,,
Carmona, López,Sandra Arantxa,Sandyaranza@gmail.com,5561156477,5513450166,2000,0,0,0,M,Cita,0
carmona, lopez,valeria,valeriacarmona652@gmail.com,5540746724,5559338861,2000,0,0,0,M,,
Carmona, Sánchez,Juan Roberto,yoyaku78376@outlook.com,57641991,5534072073,2000,0,0,0,M,Cita,0
Carranza, Cruz,Alejandro,alex.cc@live.com.mx,5521818002,75921291,500,0,0,0,M,,
Carranza, Vargas,Obed Orlando,carranzaobed123@gmail.com,5514657413,5561523221,2000,0,0,0,M,,
Carranza,,Monserrat,monse-baez@hotmail.com,5564989100,,0,0,1000,0,Q,,
Carrasco, Cordova,Estefania,e_carrasco@hotmail.com,5584059842,,2000,0,0,0,M,,
Carrasco,,Litzy Mariam,litzmez245@gmail.com,5574897611,,2000,1000,820,0,Cita,Cita,0
Carrasco, Guevara,Marco Antonio,marcoantonio127.macg@gmail.com,5548765980,5551128184,2000,0,0,0,M,,
carreiro, ibarra,carlos daniel,danielitho6866@gmail.com,5549975737,59159399,2000,0,0,0,M,,
Carreño, Juarez,Betsabe,cxbetsa@gmail.com,5539667132,,200,0,0,0,M,,
Carreño, López,Pedro Antonio,elsye_ga@yahoo.com.mx,5511385228,,2000,0,0,0,M,Cita,0
Carreño, Romero,sharon Daniela,sharon_120285@hotmail.com,5513194761,53980315,1300,0,0,0,M,Cita,0
Carreon, Tepisila,Gerzain,gerzakrreon@gmail.com,5528145540,,1000,0,0,0,M,,
CARRETO, JIMENEZ,DULCE KAROL,99dulcekarol@gmail.com,5531140773,,2000,1000,0,0,M,Cita,0
Carrillo, García,César Michel,ali.mipreciosa@hotmail.com,5528855999,5540870137,200,0,0,0,M,,
Carrillo, Castro,Paola Mariana,castropaola318@gmail.com,5549553437,5545377520,2000,1150,1000,0,M,Cita,0
Carrillo, Carbajal,Danna Paola,dannacarbajal14@gmail.com,5584900709,5584318071,500,0,0,0,M,,
Carrillo, Velasco,Julio angel,gabys402@Hotmail.com,5527524236,53487775,2000,0,0,0,M,,
Carrillo,,Melissa,gama5797@gmail.com,5543595063,5557998871,0,1000,0,0,F,,
Carrillo, Salas,ILSE BERENICE,ilseprincess_11@hotmail.com,5540395112,,2000,0,0,0,M,,
Carrillo, Hernandez,Leslie Esmeralda,magiito_84@hotmail.com.mx,5560742214,,500,0,0,0,M,,
Carrillo,,Sebastian Cristobal,seba1carrillo@gamil.com,12784069,,0,0,1000,0,Q,,
Carrizales,,Luis Eduardo,atera_0506@yahoo.com.mx,445527554357,445510148861,0,0,0,1000,C,,
Carrizosa, paez,Grecia,grechi2308@gmail.com,5576567702,54212980,2000,0,0,0,M,,
CARRO, Garcia,Mariana,alegarciag77@gmail.com,5546640747,58631778,2000,0,0,0,M,,
Carvajal, Gonzalez,Adriana,Adriiiana_3027@hotmail.com,5534567807,5544902316,2000,0,0,0,M,,
Carvajal, Ruiz,Isaac,Mlruiz@securitysupport.com.mx,5530960927,,2000,0,0,0,M,,
Carvajal, Colin,Isui Alejandro,omaro_077@hotmail.com,58895886,5524962546,2000,0,0,0,M,,
Carvente, Martínez,Alan David,mldav5_21@live.com,5523532006,,2000,0,0,0,M,,
Casas, Aragón,Edwin,casasedwin00@gmail.com,5584455607,20642673,500,0,0,0,M,,
Casas, Rodríguez,Octavio,ocasas67@gmail.com,5536504108,5549056757,2000,0,0,0,M,Cita,0
Casas, Nieto,Sandra Itzel,sandynieto959@gmail.com,7225204754,7192884333,2000,0,0,0,M,,
Casillas, Aviña,Gael Emiliano,fornite42028@outlook.com,5523440121,,2000,0,0,0,M,,
Casillas, Leocadio,Paola Natali,paolacasillas15@gmail.com,7221017203,7225125708,2000,0,1000,0,M,,
CASTAÑEDA, BLANCO,ANGEL DE JESUS,angeldejesus051099@gmail.com,5540549751,5539824981,2000,0,0,0,M,,
Castañeda, Rivera,Brenda Angélica,angelicarivera72948@gmail.com,5521783428,5521783428,2000,0,0,0,M,Cita,0
Castañeda, Carbajal,César Carim,cccc990811@gmail.com,5571399293,5540829291,2000,0,0,0,M,Cita,0
Castañeda, Peña,Fatima,chacualina_fatis@hotmail.com,5558425233,5576697799,2000,0,0,0,M,,
Castañeda, Medina,Fernanda camila,Cmedina@protesa.com.mx,5531991736,,200,0,0,0,M,,
Castañeda,,Javier,Sylviao.27@hotmail.com,445545449728,55568988,0,0,500,0,Q,,
castañeda, Moheyer,victoria,viistylinson@gmail.com,7225125559,7227815229,2000,0,0,0,M,,
Castañón,,Meztli López,"meztli931656@gmail,com",5532181685,5584819656,2000,0,0,1001,C,Cita,0
Castelan, Rivera,Michelle,castelanrivera15@gmail.com,47553687,5559409527,2000,0,1000,0,M,,
Castelan, Garcia,Daniela Esperanza,geopgs5678@gmail.com,5513371681,5517802073,2000,0,0,0,M,,
Castelán, García,Diego Alejandro,diegodro456710@gmail.com,5513371681,5517802073,2000,0,0,0,M,,
CASTELANO, LOPEZ,MARIA GUADALUPE,chapis11_lv@hotmail.com,53-86-90-65 ,5548076393,2000,0,0,0,M,,
Castellanos, Angel,Maria Fernanda,alicia_angel_ruiz@outlook.com,5549417909,50375345,2000,0,0,0,M,Cita,0
Castellanos, Cruz,Luisa fernanda,mimejordulce@hotmail.com,5516159021,57984150,2000,0,0,0,M,,
Castilla, Flores,Elizabeth Alin,ally.cast@icloud.com,5575202993,5546638170,2000,0,0,500,M,,
Castillo, Bautista,Abraham,Abraham_25jn@hotmail.com,5572100203,,2000,1001,1000,0,M,cita,0
Castillo, Ramos,Donovan Ricardo,alek1.impulsoraemi@outlook.es,5568174082,5571725109,500,0,0,0,M,,
Castillo, Montes,Karen alejandra,alemontesmtz37@gmail.con.,5549658160,5589962803,100,0,0,0,M,,
Castillo, García,Alexis,alexis43331@gmail.com,5587777894,5581992924,2000,1000,0,0,M,cita,0
Castillo, Gómez,Edwin,ame_xahui@hotmail.com,5545000946,5579825183,500,0,0,0,M,,
Castillo, Carreto,Ana Lilian,analiliancastillo03@gmail.com,57185655,5584702305,1000,0,0,0,M,,
Castillo, Gil,Maria Fernanda,arlingil070915@gmail.com,5526587032,53489009,2000,0,0,0,M,,
Castillo, Casimiro,Britani Saori,britanicastillo24@gmail.com,5569093050,25919202,2000,0,0,0,M,Cita,0
Castillo, Romero,Janeth Ariana,carj031110@gmail.com,55581370863,5526725558,2000,0,0,0,M,Cita,0
Castillo, Juandiego,Erick,casme1974@gmail.com,5514752552,,2000,0,0,0,M,,
Castillo, Najera,Jesus,castillo9932@gmail.com,5585664407,7361110707,2000,0,0,0,M,,
Castillo, Gutiérrez,Omar,castlom@gmail.com,5522526752,26434195,2000,0,0,0,M,,
Castillo, Roa,Karla Montserrat,cristy1874@hotmail.com,5527553792,53833352,2000,1000,0,0,M,Cita,0
Castillo,,Javier Adrian,danteadrian_you@hotmail.com,5516524705,5559912552,0,0,0,1000,C,,
castillo, rosiles,daniela,dany_dead@hotmail.com,5516846998,5514807292,2000,0,0,0,M,,
Castillo, Horta,Dayanna,dayannach03@gmail.com,26432693,445534045061,2000,0,1000,0,M,,
Castillo, Salazar,Diana Aura,dc576725@gmail.com,5575274131,5513042621,2000,0,0,0,M,,
Castillo, Collado,Eduardo,ebm114@hotmail.com,56126813,5526616214,2000,0,0,0,M,,
Castillo, Moya,José Emiliano,emicast27@gmail.com,5583382209,5522012888,2000,0,0,0,M,,
castillo, bañuelos,alexis,engaliciah928@hotmail.com,5512949521,5518196405,2000,0,0,0,M,,
castillo, carreto,estrella mariely,estrellitaelycc@hotmail.com,5527715943,5537701382,1000,0,0,0,M,,
Castillo, Bautista,Fernanda Brisel,fc9218268@gmail.com,55103694,5521334721,2000,0,1000,0,M,Cita,0
Castillo, García,Francisco,fco.castillo202@gmail.com,5519321828,,500,0,0,0,M,,
Castillo, Pérez,Héctor Yoltic,he_yoltic09@hotmail.com,5585733787,,2000,0,0,0,M,,
Castillo, Maldonado,Analiah,helsie_casm@hotmail.com,5518498774,5548494440,2000,0,0,0,M,,
CASTILLO,,ANALIAH,HELSIE_CASM@YAHOO.COM.MX,5548494440,5518498774,0,0,0,1000,C,cita,0
Castillo, Guzmán,Dana Paola,jade.frida@hotmail.com,5531237762,5532343718,2000,0,0,0,M,Cita,0
Castillo,,Diana Aura,jefaelbiz_14918@hotmail.com,62788840,,0,0,0,1000,C,,
Castillo, Ordoñez,Johan Jared,johan51299@hotmail.com,5551850033,55261461,2000,0,0,0,M,Cita,0
Castillo, Márquez,Josselin Kristal,Josselincastillo897@gmail.com,5582588113,22071701,2000,500,0,1000,M,Cita,0
Castillo, Sanchez,Joshua omar,juggerjoshua10@gmail.com,5564971344,5522526752,2000,0,0,0,M,,
Castillo, Santillan,Karen Anel,Karen_anel1@hotmail.com,5558783981,5558783881,2000,0,0,0,M,,
castillo, Martínez,Zoe Paulina,ki.ke_09@hotmail.com,5518838506,58102610,2000,0,0,0,M,,
Castillo, Rocha,Diego,krdpuma@gmail.com,5510782511,5510101962,2000,0,0,0,M,Cita,
Castillo, Laguna,Moisés,Laguna.enriquez@hotmail.com,59131213,5548224130,2000,1000,0,0,M,,
Castillo, Rico,Diego Emilio,lilian_mag_castillo@hotmail.com,5543400198,5539695264,500,0,0,0,M,,
Castillo, Flores,Brenda,maguitoflores2010@hotmail.com,5539314697,22289081,2000,0,200,0,M,Cita,0
Castillo, Flores,Eduardo,maguitoflores2010@hotmail.com,5539314697,22289081,2000,0,1000,1000,M,Cita,0
Castillo, Jimenez,Ailin Alejandra,mari.jimenez6@hotmail.com,5547580913,5523331360,2000,0,0,0,M,Cita,0
Castillo, Martinez,Miguel Angel,mcastillomtz1965@gmail.com,5556079053,5517390082,2000,0,0,0,M,,
Castillo, Laguna,Moisés Valentin,moickramos@gmail.com,5548224130,,0,0,1000,0,M,Cita,0
Castillo, Estrada,Claudia Evelin del,nancy1190@hotmail.com,5582294692,5581026630,2000,1350,1000,1000,M,Cita,0
Castillo, Corona,Omar,omar.mio160609@gmail.com,5548082750,5539884216,2000,0,0,1000,M,,
Castillo, Reyes,Flor Ivon,p4.castillor.flori.15@gmail.com,5519685830,15919162322,2000,0,0,0,M,,
Castillo, Valdéz,Paloma Itzel,paloma.itzel.hoologan@gmail.com,5554045613,5554062054,2000,0,0,0,M,,
Castillo, Gómez,Adriana Alejandra,paty.fer@live.com.mx,5540145428,,2000,0,0,0,M,,
Castillo, Ortega,Paulina Guadalupe,pinkipau12ortega@hotmail,57597510,5540361536,2000,0,0,0,M,,
Castillo, Lopez,Jorge Eduardo,princesamilenium@hotmail.com,5520716240,5574035096,2000,0,0,0,M,,
Castillo, Flores,María Fernanda,roma.1448@hotmail.com,5525323829,5552755757,2000,0,0,0,M,Cita,0
Castillo, Martínez,Shajadi,shaji_20004@hotmail.com,5572137663,56867255,2000,1000,1000,0,M,Cita,0
Castillo, Cruz,Sofía Michell,smichell.cgarcia@gmail.com,5513106752,5567871117,2000,0,0,0,M,Cita,0
Castillo, Rodríguez,Leonardo,veronica.rodriguez@ipgh.org,5540818334,5528230168,2000,0,0,0,M,,
Castillo,,Wendy,wendycasrmz@gmail.com,5561199165,,0,0,0,1000,C,,
Castillo, Martínez,Yarenis,yareniscm@gmail.com,5548242254,56867255,2000,1000,1000,0,M,Cita,0
Castillo, Bracamontes,Adriana,yuiadri@hotmail.com,21584495,5531640843,500,0,0,0,M,,
Castro, Escalante,Anette,anettecastro39@gmail.com,53676528,5548928326,2000,1000,1000,0,M,Cita,0
Castro, Hernandez,Yareni Michell,angy.hdez.g@gmail.com,5550675171,5539180195,2000,0,0,0,M,,
Castro, Arroyo,Zaida yuquetzin,berenice.lesarroyo@gmail.com,5536078970,5550871403,2000,1000,0,1000,M,,
castro, jeronimo,daniel alejandro,carmenjeronimo11@gmail.com,41183226,5523078532,2000,1000,0,0,M,Cita,0
castro, villeda,Barbara,castro.villeda.barbara@gmail.com,5525055404,5549713614,2000,0,0,0,M,,
Castro, Hernández,Karla Alexandra,castrokarla630@gmail.com,5572211243,53539136,2000,0,0,0,M,Cita,0
Castro, Sarmiento,Kimberly Betsabee,Castrokim.14@gmail.com,5535686799,5540585122,2000,0,0,0,M,,
Castro, Delgadillo,Monica,e.castro73@outlook.com,5552174390,5537037398,2000,0,0,0,M,,
CASTRO,,MONICA,ecastro@lacosteña.com.mx,5537037398,,0,500,0,0,F,Cita,0
Castro, Ramon,Eduardo Castro Ramon,eduardocastroramon0@gmail.com,5510241778,58587500,2000,0,0,0,M,,
castro, rios,omar,fcastro@gruporom.com,53528145,5528972598,2000,0,0,0,M,,
castro, flores,diego damian,futchicha02@gmail.com,5582593731,5532100944,2000,0,0,0,M,,
Castro, Gonzalez,Christofer Jonatan,Gnomo1977w@gmail.com,53425370,5587890280,2000,0,0,0,M,,
Castro, Vázquez,Héctor,hector.cavh11@gmail.com,5515240505,5515229122,500,0,0,0,M,,
CASTRO, BELTRAN,MAIA DANAE,jacart_0724@live.com,5568186295,5529873088,2000,0,0,0,M,,
Castro,,Diego Damián,josefina.flores23@hotmail.com,5532100944,,0,100,0,0,F,,
Castro, Valverde,Karen Berenice,karen.casval@hotmail.com,5529351805,,2000,0,0,0,M,,
Castro, Sánchez,Alondra Jazmín,liloprincesitajazmin@hotmail.com,5543912066,15515676,2000,0,0,0,M,,
Castro, Ramirez,Miguel de jesus,Miguel.chuky@hotmail.com,5530492533,64242089,2000,0,0,0,M,,
Castro, Hernandez,Samantha Ayelen,normaangelicahg@hotmail.com,5550675171,5539180195,2000,0,0,0,M,,
Castro, Luna,Pamela Ixchel,Pamixchel@hotmail.com,5537524102,5540684356,2000,0,0,0,M,Cita,0
Castro, Cruz,Rogelio Angel,rangel.racc36@gmail.com,5558188830,5519550803,2000,0,0,0,M,,
Castro, Rivera,Támara Patricia,riveratamara845@gmail.com,5539077551,58345693,2000,0,0,0,M,Cita,0
Castro, Soto,Rossana,Ross26soto@gmail.com,5529683820,53006531,1000,0,0,0,M,,
CASTRO, CORTES,KATYA MICHELLE,rosy_cocorrales@hotmail.com,5564343140,5538923715,2000,1000,0,1000,M,Cita,0
CASTRO, DOMINGUEZ,ESTEBAN GAEL,roxana.dominguez@issste.gob.mx,5536688437,5542792951,2000,0,0,0,M,,
Castro, Anaya,Kevin,rubilizc14@gmail.com,57491441,5521101858,500,0,0,0,M,,
Castro, Rosas,David Abdiel,sichi4@msn.com y,5535222576,5586145674,1500,0,0,0,M,,
Castro, Vazquez,Silvia,silvia castro.marz@gmail.com,5514897207,5515229122,500,0,0,0,M,,
Castro, Ramírez,Luis angel Joan,sonrix.luis@gmail.com,5537024622,64242089,2000,0,0,0,M,,
Castro, Castro,Teresa Arely,terycastro22@gmail.com,5538518785,5524242000,2000,0,1000,0,M,Cita,0
Castro, Arana,Naomi Belén,vcasduran72@gmail.com,5579830682,5572156411,2000,0,0,0,M,Cita,0
Cataño,,Gerardo Franco,cacoafro@hotmail.com,5526933852,5523124372,0,1001,0,0,F,,
Catarino, Valencia,Danna Kimberly,Danna.kimberly29@gmail.com,5534792263,5529507920,2000,1000,0,0,M,Cita,0
Caudillo, Miranda,Pilar,acuario05miranda@gmail.com,5513348582,,0,0,1000,0,M,Cita,0
Cayetano, Ojeda,Angel,Monserratojeda01@gmail.com,5581058092,,2000,0,0,0,M,cita,0
Cazales, López,Sahid,loryyadis280685@gmail.com,55855728,5528874088,100,0,0,0,M,,
CAZARES, HIGAREDA,FERNANDO,cazares_ferchito@hotmail.com,5524331068,,0,1000,1000,0,M,,
Cazares, Mejia,Gloria Luz,luz.cazme@gmail.com,5532717226,5549599439,2000,0,1150,0,M,Cita,0
Cázares, Flores,Zároly,dinoracazares@gmail.com,5534408901,57788825,2000,0,0,0,M,,
Cázares,,Fernando,fcj199914@gmail.com,5547783627,5514849920,0,0,0,1000,C,,
Cazarin, Perez,Yessica,gcazarinper@hotmail.com,5541458924,5536100673,2000,1000,1000,0,M,,
Cazeres, Diaz,Alan antonio,editdiaz_@hotmail.com,5572818362,,2000,0,0,0,M,,
Ceballos, Garza,Casandra Ameyali,casandraceballosgarza@gmail.com,5591950995,,2000,0,0,1000,M,Cita,0
Ceballos, Cea,Sebastián,facturas.op@hotmail.com,5532519894,59198012,2000,0,0,0,M,,
Cecilio, Luna,Karla mariela,Marielacecilio0401@hotmail.com,5529600490,56374413,2000,0,0,0,M,,
Cecilio, sánchez,Armín Emiliano,suy-moon2@Hotmail.com,525580838747,,2000,0,0,0,M,,
Cedeño, López,Samuel Ivan,suloba2803@gmail.com,5519148718,5548259734,500,0,0,0,M,,
Cedillo, Alcántara,Bruno,Brunotl474@gmail.com,5584970382,5586167782,2000,0,0,0,M,cita,0
Cedillo,,Daniela Viridiana,dvcedilloluna312@gmail.com,5512661421,5515271518,0,0,0,1000,C,,
Cedillo, Santamaría,Cristian Fernando,hola_soy_cristian@hotmail.com,5581322848,5526082456,500,0,0,0,M,,
Cedillo, González,Guadalupe,lupieCedillo99@gmail.com,5549034480,55142439,2000,0,0,0,M,,
Cedillo, Fernandez,Daniel,tooldany_cedyio@hotmail.com,44379210,5510244996,2000,0,0,0,M,,
Ceja, Ramos,Ramon Axel,anagabrielaramosparada@gmail.com,5561042072,,2000,0,0,0,M,,
Ceja,,Sofia,astridceja01@gmail.com,5529098768,5537070594,0,0,0,1000,C,,
Celaya, Serrato,Fabricio Alejandro,fabricioC54@hotmail.com,5546521129,5545367768,500,0,0,0,M,,
Celestino, Salazar,Andrea,andreajupiter17@gmail.com,5513541051,,2000,0,0,0,M,Cita,0
Celestino, Luna,Miguel Ángel,miguelcelestino.108.015@gmail.com,26132801,5550556907,2000,0,0,0,M,,
Celis,,Bertha,bertha.simpson@hotmail.com,5516497954,,0,200,0,0,F,,
Celis, Quintana,Valeria,perlaguadalupe.qr@gmail.com,5532055817,5512339303,2000,0,0,0,M,Cita,0
Cequera, Rios,Siegfried,siegfriedcequera@gmail.com,53688502,5585785491,200,0,0,0,M,,
CERDA, CASTAÑEDA,MIGUEL ANGEL,espinito_ma@hotmail.com,59866872,5534711942,2000,1000,0,0,M,,
Cerezo, Rodríguez,Ricardo Daniel,fernando_ro_cer_rod@outlook.es,5540431107,17385704,2000,0,0,0,M,,
CERON, AMADOR,SAMUEL,kpceron@gmail.com,5544864929,,2000,0,0,0,M,,
Ceron, Zamudio,Patrizio,vazapa3@hotmail.com,5528986757,5548361182,2000,0,0,0,M,,
Cerrillo, Martínez,Juliana Itzel,julianaitzel@hotmail.com,5540664799,59580793,2000,1000,0,0,M,Cita,0
Cerrillo, Mejia,Roberto Miguel,rcerrillomejia@gmail.com,5529154911,5521180722,2000,0,0,0,M,,
Cerrillos, Marcos,Stephanya,fannycerrillosmarcos.com,5520109489,5533944410,500,0,0,0,M,Cita,0
Cerros, Huerta,Allyn Jatziri,18ajch18@gmail.com,5526766210,36895175,2000,1150,1000,1050,M,Cita,0
Cerros, Huerta,Brenda Verónica,18ajch18@gmail.com,5526766210,36895175,2000,0,0,0,M,,
Cerros,,Brenda Veronica,brendacerroshuerta@gmail.com,5575262066,,0,0,0,1000,C,Cita,0
Cervantes, Pérez,Osvaldo Javier,alvarovom2000@outlook.com,5526998676,7731524542,2000,0,0,0,M,,
Cervantes, Olmos,Joanna,bere.cervantes.olmos@hotmail.com,5540315132,54257858,2000,0,0,0,M,,
Cervantes,,Abram,cervantesabram742@gmail.com,5536707085,5582326171,0,0,0,1000,C,,
cervantes, cabello,christian,claudia.cervantesc@pgr.gob.mx,58576683,5524356484,2000,0,0,0,M,,
Cervantes, Coria,María del Carmen,coria_car@hotmail.com,5554306438,5554847481,500,0,0,0,M,,
Cervantes, Cuevas,Eros Ariel,eroscervantes2@gmail.com,5561829168,5515213311,500,0,0,0,M,,
cervantes, flores,gabriela berenice,fotokolor_flores@hotmail.com,5584759921,5541316776,500,0,0,0,M,,
Cervantes, Valencia,Daniela,Jfcervantes72@hotmail.com,5532599075,,2000,1000,0,0,M,,
Cervantes, Castillo,Monserrath,kannademo04@gmail.com,5536454349,54264741,2000,0,0,0,M,Cita,0
Cervantes, Islas,Ilse,macervantes17@gmail.com,5559540118,5511896595,500,0,0,0,M,,
Cervantes, Chávez,María Fernanda,marifercch12@gmail.com,5564384388,5591958686,2000,0,0,0,M,,
CERVANTES, SEVILLA,PABLO SALVADOR,pablobird1@hotmail.com,5523703712,,500,0,0,0,M,,
Cervantes, Rodriguez,Jose de Jesus,Rocejes@gmail.com,5575142585,51120100,2000,0,0,0,M,,
Cervantes, Naranjo,Angelica Tamara,tania.naranjo@oulook.es,5512455709,5525675237,2000,0,0,0,M,,
Cervantes, Hernández,Jesús,yisuscervantes.hdz@gmail.com,5582770234,5533863239,2000,0,0,0,M,,
Cervantes, Borbolla,Jorge David,yorchsdavis@gmail.com,5565931656,58402411,500,0,0,0,M,,
cervantes, rico,miguel zabat,zabat0212@gmail. com,5540944278,86200716,3000,0,0,0,M,,
Cervantes, Uribe,Christopher Omar,zihomaralozano@hotmail.com,5554518520,69951054,2000,0,0,0,M,,
Cervera, Ortiz,Jesús daniel,reynosoelvia28@gmail.com,5534522239,5544760077,2000,0,0,0,M,,
Céspedes, González,Valeria,cespedes.gonzalez.valeria@gmail.com,5530409266,5528559959,2000,0,0,0,M,Cita,0
Cetina, Martínez,Bruno de Jesús,gaby_gony@hotmail.com,5537707312,55649508,1000,0,0,0,M,,
Cetina, Martínez,Naomi Elizabeth,gaby_gony@hotmail.com,5537707312,55649508,1000,0,0,0,M,,
CHACHA, FERNÁNDEZ,MARÍA VIRGINIA DE JUQUILA,kikiviki.09@gmail.com,5560763192,5526720175,2000,0,0,0,M,,
Chacón, Espinoza,Diana,guía.chacon@hotmail.com,5523355247,5539754184,2000,0,0,0,M,,
Chacón, Méndez,Yahir Eduardo,yalaumendez@gmail.com,5522654634,54237541,2000,0,0,0,M,,
Chaltell, Díaz,César Alejandro,alexjassan.9@gmail.com,53064972,5530189248,2000,0,0,0,M,Cita,0
Chamorro,,Alinne julieta,Alinnejulieta@gmail.com,5528442481,15461897,2000,1000,1000,0,Cita,Cita,0
Chamorro, Vergara,Leonardo,chamorrovergara3@gmail.com,5591940816,15515070,2000,0,0,0,M,,
Chanes, Gante,Mayra Karen,karen.1b.sec183@gmail.com,5540795107,55178911,2000,1000,0,0,M,,
Chaparro,,Jeus del angel,chaparrotorresj@gmail.com,5571699960,,0,1000,0,0,F,,
chaparro, torres,jesus del angel,jes-chucho1999@hotmail.com,5571699960,,2000,0,1000,0,M,,
Chavarria, Torres,Diego Santiago,anel.torres.at@gmail.com,5544948468,5521060294,500,0,0,0,M,Cita,0
Chavarría, Galicia,Edgar Emiliano,chavarriaemiliano@icloud.com,5534668378,5554329811,2000,0,0,0,M,,
Chavarría, Alvizar,Audrey,saraalvizar@hotmail.com,5566106506,5540418664,2000,0,0,0,M,,
Chaverria, Viloria,Faustino Ezequiel,bmwchaverria@gmail.com,5542921881,,2000,0,0,0,M,,
Chavez, Rivera,Joan cebastian,amaliarivera.@hotmail.com,5580926227,53926694,500,0,0,0,M,,
Chavez, Baeza,Agustin,azeneth07@hotmail.com,5555064455,5572291105,2000,0,0,0,M,,
Chavez, Ruiz,Sabrina,blancaruiz1003@gmail.com,5515033184,5522028178,2000,0,0,0,M,Cita,0
Chavez,,Brenda Alejandra,brenda.chavez.zepeda.28gmail.com,5523086120,67945215,0,1001,0,0,F,,
Chavez, García,Christian,cris_chavez88@hotmail.com,5514524792,55585197,2000,0,0,1000,M,Cita,0
Chavez, GONZALEZ,Jiménez Lorelei,cynthiaegnuacm@gmail.com,5519305090,5519304697,2000,0,0,0,M,,
Chavez, Lopez,Daniela,dannycolorsrg@hotmail.com,5576626480,5518660499,500,0,0,0,M,,
Chavez, Higuera,Erik Daniel,ericos_daniel@hotmail.com,5567635628,13145996,2000,0,0,0,M,Cita,0
Chavez, Barrón,Erick yael,Esperanzabarron22@gmail.com,5519071365,53194765,2000,0,0,0,M,,
CHAVEZ, SANCHEZ,CESAR,felizjessy74@yahoo.com.mx,5512337836,5549454459,2000,0,0,0,M,,
Chavez, Martinez,Gabriela,gabbheaslip@gmail.com,5536294960,5561764741,2000,0,0,0,M,,
Chavez, García,Inti Yael,jimbuhot@gmail.com,5547365161,44233661,500,0,0,0,M,Cita,0
Chavez, Hernandez,Laura Karina,Kh079680@gmail.com,5537205776,41717913,2000,0,0,0,M,,
Chavez, Hernández,Alison Estefania,labragpe@hotmail.com,24500291,5568671101,500,0,0,0,M,,
Chavez, Caballero,Ricardo,rick01-@outlook.com,5547735879,5541934105,2000,0,0,0,M,,
Chavez,,Yaret Belén,yaricvonce@outlook.es,5543431506,,0,1000,0,0,F,,
Chávez, Alaniz,Asiel Isaí,alanizre@yahoo.com.mx,5533741766,5512647874,500,0,0,0,M,,
Chávez, Chávez,Alejandra,alec_basquet@hotmail.com,5532308233,,2000,0,0,0,M,,
Chávez, Zepeda,Brenda Alejandra,brenda.chavez.zepeda.28@gmail.com,67945215,5523086120,2000,0,1000,0,M,,
Chávez, Jaramillo,Mariano,eziov@outlook.com,63059915,5564080485,2000,0,0,0,M,,
Chávez, Maldonado,Tenoch Jacob,jacobito.870@gmail.com,53353325,445538841521,2000,0,0,0,M,,
Chávez, Mondragón,Lessli,lesslichavez07@gmail.com,5541116835,5567788694,2000,0,0,0,M,Cita,0
Chávez, González,Daniel Kobadká,Nenaximena2702@gmail.com,445533969849,22271240,2000,0,0,0,M,Cita,0
CHÁVEZ, CANO,GAEL EDUARDO,nerakgael@hotmail.com,5543132648,59386257,2000,0,0,0,M,,
Chávez, Bernardo,Osmar Bryan,osmar.chavez.mac@gmail.com,5548557649,75746010,2000,1000,1000,0,M,Cita,0
Chávez, Ángeles,Abigail Toyetzin,rita.angeles.j@gmail.com,26318582,5530545444,2000,0,0,0,M,,
Chávez, Hernández,Jessica,Samanthamune@gmail.com,41717913,5565082238,2000,0,0,0,M,,
Chávez, Cerón,Dilan jair,sandroadrian40@gmail.com,445535100434,445535529304,2000,0,0,0,M,,
Chávez, Cárdenas,Arianee,Shadow_yoshi4848@hotmail.com,5547273907,57578902,2000,0,0,0,M,,
Chávez, Báez,Uziel,uzielc462@gmail.com,58660990,5530195597,100,0,0,0,M,,
CHICA, VELAZQUEZ,ABRIL ODALYS,oda1796@yahoo.com.mx,5586141223,68395115,2000,0,0,0,M,Cita,0
Chico, Lampart,Ariadna,denieny77@gmail.com,5534943429,86613793,500,0,0,0,M,,
Chico,,Sarai,denieny77@gmail.com,5534943429,,0,0,0,500,C,,
Chihuahua, Barrera,Itzel,escribeme_ehh@live.com.mx,5539613661,5574759883,2000,0,0,0,M,,
Chilpa, Navarro,Alan Salvador,chilpaalan@gmail.com,53892769,,2000,0,0,0,M,,
Chim, Fernández,Jesús Adrian,ferchim83@gmail.com,5538768663,70962134,2000,1000,0,0,M,,
Chim, Avila,Valeria Fernanda,Kandy_301000@hotmail.com,445530000000,,2000,1000,0,0,M,,
Chino, Fuentes,Ingrid joselin,nanfuentes18@gmail.com,5569161919,63037872,2000,0,0,0,M,Cita,0
Chirino, Luna,Martha yesenia,eloisaluna1982@gmail.com,70963798,5578553699,2000,0,0,0,M,,
chirino,,Yesenia,eloisaluna1982@gmail.com,5578553699,53125433,0,1001,1000,0,Q,,
CHOMBO,,DANIELA LIZBETH,lizdanriri@gmail.com,71543851,5573665924,0,0,1000,0,Q,,
Cid, Sánchez,Camila,cidcamy@gmail.com,5569627670,5543226610,500,0,0,0,M,,
Cid, Ibarra,Paulette Aranza,daliaibarra@oapas-Naucalpan.gob.mx,5531312743,5516881726,2000,0,0,0,M,,
cienfuegos, hernandez,Jose alberto,jose.alberto.cienfuegos27@gmail.com,75791631,,2000,0,0,0,M,Cita,0
Cilia, Contreras,Mariana,marianaciliacontreras@gmail.com,5546687830,5546687830,2000,0,0,0,M,,
Cíntora, Zepeda,Yessica Nayeli,cznayeli@hotmail.com,5529311960,58386129,2000,0,0,0,M,,
Cipriano, Gómez,Anahi,403.cipriano.gomez.anahi@gmail.com,4545656352,4563256548,2000,1001,0,0,M,,
Ciriaco, Martínez,Gabriela,anamapa.19@gmail.com,5583825277,,2000,0,0,0,M,Cita,0
Cisneros, Garcia,Vania ximena,Agbdkna@gmail.com,5518510537,53176589,2000,0,0,0,M,,
Cisneros, Barona,Brayan Jesus,cisneros81@live.com.mx,5540843474,5540558611,2000,500,0,0,M,,
CISNEROS, LOPEZ,DAFNE NIRVANA,dafne.cisneros@hotmail.com,5532331867,26053132,2000,0,0,0,M,,
Cisneros, Juarez,Aranza,frambuesita_1938@hotmail.com,5523693071,58882450,2000,1000,1000,0,M,cita,0
Cisneros, Perez,Leticia,letycispe@gmail.com,5563688896,5540234292,2000,0,0,0,M,Cita,0
Cisneros, Hernández,Samantha Tzahiri,samantha.tzahiri2014@gmail.com,5531111129,5532314282,2000,0,0,0,M,,
Clamont, Reyes,Leticia Carolina,caroclamont@hotmail.com,445579894633,445539886777,2000,0,0,0,M,Cita,0
Claudio, Gasca,Jorge Alberto,Sasori_jorgejack@hotmail.com,5542569618,50827775,2000,0,0,0,M,,
Clavel, Mejia,Sandra Elizabeth,sandraelizaclavelmejia@gmail.com,5542947225,,2000,0,0,0,M,,
clemente, castro,julio cesar,juliocbachilleres@gmail.com,5512102892,5584739733,2000,0,0,0,M,,
Clemente, Lopez,Tonatzy Anahi,tona.clemente09@gmail.com,5512449677,5522608588,2000,0,0,0,M,Cita,0
Coarasa, Aguilar,Ana Leticia,lety_coarasa@hotmail.com,5554046931,53970779,2000,0,0,0,M,,
Coarasa, Cruz,Maricarmen,lety_coarasa@hotmail.com,5554046931,53970779,2000,0,1000,0,M,Cita,0
Cobos, Brito,Ana,ana.cobos922@gmail.com,5563776673,5543261466,2000,1000,1000,0,M,cita,0
Cobos, Dominguez,ximena Margarita,cobosdomximenamargarita@hotmail.com,53923088,5543909201,500,0,0,0,M,,
Coco, Rioja,Sherida,Scogcom65@gmail.com,5539779310,58662667,2000,0,0,0,M,Cita,0
Cocoletzi, Estrada,Jacobo,Jacobcocol12@gmail.com,81906498,5528779492,2000,0,0,0,M,,
Cocoletzi, Estrada,Abraham,Mieg_73@yahoo.com.mx,5560963753,5526779492,2000,0,0,0,M,,
Cogco, Torres,Yosef,Cogcoo@hotmail.com,5543522889,5548762069,2000,0,0,0,M,,
Colchado, González,José David,yolagonzaleztr@hotmail.coml,5538421635,5548598718,2000,0,0,0,M,,
colin, sanchez,cristian,chrischivagob10_@hotmail.com,5570672681,,1500,0,0,0,M,,
Colin, Romero,Diego Uriel,Diegocolin.r13@gmail.com,5514128640,57749329,2500,0,0,0,M,,
Colín, Albarrán,Maria del Carmen,mariadelcarmen23052001@gmail.com,5561479035,5514276856,2000,0,0,0,M,,
Colín, Albarrán,Rodrigo de Jesus,mariadelcarmen23052001@gmail.com,5561479035,5514276856,2000,0,0,0,M,,
Collins, Pérez,Ingrid Amayrani,veridic.34@hotmail.com,5534207290,5545384183,1000,0,0,0,M,,
colorado, mendoza,maria fernanda,fernany1699@gmail.com,5524785000,5583695931,3000,0,0,1000,M,,
Colunga, Palemon,Ana Karen,akcolunga25@gmail.com,5511736429,5585837924,2000,1000,0,0,M,Cita,0
Concepcion, Garduño,Oscar Alan,Ocg7496@gmail.com,5534063215,5581637526,400,0,0,0,M,,
Concepción, Ortega,Karla Daniela,karlaortegacoo@gmail.com,5574673448,59588244,2000,1001,1000,500,M,,
Conde, Arroyo,Ariadna,aryconde3@gmail.com,5513067104,5522181382,2000,0,0,0,M,,
Conde, Reyes,Gloria del Carmen,gloriacondereyes10@gmail.com,5584064140,5584064140,0,1150,0,0,M,,
Conde, Cervantes,Oscar David,Marcoscondecocoletzi@gmail.com,5546913742,5530712324,2000,0,0,0,M,,
Constantino, Jurado,Alberto,Constantinoalberto97@gmail.com,5560755736,5549154590,2000,1000,0,0,M,,
CONSTANTINO, JURADO,KARLA,karlaconsta227@gmail.com,5549154590,5560755736,2000,1000,0,0,M,,
Consuelos, Pérez,Angel,angel_bolcoba@hotmail.com,55451420,5571086374,500,0,0,0,M,,
Contreras,,Alfredo,alf.con_roj@outlook.com,5587609019,5512571069,0,500,0,0,F,,
Contreras, Rojas,Alfredo,alfredoacm@hotmail.com,5512571069,5575383849,2000,0,0,0,M,,
contreras,,alma isabel,almaisabel149@yahoo.com,445512885238,445572982769,0,0,0,1000,C,,
Contreras, Hernandez,Andrea Jaqueline,andubiebs99@gmail.com,5581403743,5523285791,2000,0,0,0,M,,
Contreras, Peña,Ángel Gabriel,Azmyry09@gmail.com,5543120989,5553891362,2000,0,0,0,M,,
contreras, Ciriaco,andrea,baezoscar0916@gmail.com,5521196667,5577684481,2000,0,0,0,M,,
Contreras, Avalos,Daniel,camila22042001@hotmail.com,7291253232,5554668159,500,0,0,0,M,,
Contreras, Chávez,Clemente Gerardo,cgcontreras23@gmail.com,7227840384,26164741,2000,0,0,1000,M,,
Contreras, Leyva,Diana Fernanda,contrerasfernanda2004@gmail.com,5578812672,5562093948,500,0,0,0,M,,
Contreras, Legorreta,Alan,contreraslegorretaalan@gmail.com,5575330019,53619724,2000,1000,0,0,M,Cita,0
contreras, castañeda,Mario Fernando,contreraslopezm100@gmail.com,5551572949,5524372222,2000,0,0,0,M,,
Contreras, Miguel,Karina Yaneth,karinayaneth_cm@hotmail.com,51264415,5529693348,2000,0,0,0,M,Cita,0
Contreras, Cruz,Guillermo,memo.fish845@gmail.com,53233420,5519123712,2000,0,0,0,M,Cita,0
Contreras, Arias,Rodrigo,rodrigoca_010503@hotmail.com,445525975158,445536414628,2000,0,0,0,M,,
Contreras, Martínez,Brandon Alexis,rossmery2673@gmail.com,57107169,5554530730,2000,0,0,0,M,,
Contreras, Martínez,Victor Fernando,rossmery2673@gmail.com,57107169,5554530730,2000,0,0,0,M,Cita,0
Contreras, Castillo,Dayana,rouscastillo.davaju@hotmail.com,5518863670,,500,0,0,0,M,,
Copca,,Perla,ing.avargas70@gmail.com,5530608600,,0,0,0,1000,C,,
Corchado, Torres,Brisa Jocelyn,hotora@yahoo.com.mx,5518451550,5561788796,2000,0,0,0,M,,
Corchado, Torres,Ismael Dominic,hotora@yahoo.com.mx,5518451550,56321011,2000,0,0,0,M,,
Cordero, Trejo,Rebeca,ctrejo5790@gmail.com,5561742688,5529793187,2000,0,0,0,M,,
Cordero, Nieto,Luis,lauusanchez_1611@hotmail.com,5561198208,67957841,2000,0,0,1000,M,,
Cordoba, Borjon,Diana Monserrath,dianamcborjon@gmail.com,5551959532,53172336,2000,0,0,0,M,,
Córdoba, juarez,PAMELA JAZMIN,jazmin_chicavip@hotmail.com,445567805840,22313062,2000,0,0,0,M,,
Cordova, Nieves,Andrea Lizett,andrea_lizett@live.com.mx,5510265465,5546774978,500,0,0,0,M,,
Coria, Vera,Brenda,brendcove@gmail.com,5412564543,,50,0,0,0,M,,
Cornelio, Munguía,André Sebastian,andre.cornelio@aol.com,5535709063,55444316,2000,0,0,0,M,,
CORONA, REYES,YARENI ABIGAIL,aide_mis.07@hotmail.com,5516186512,,500,0,0,0,M,,
Corona, Feria,Valeria karime,Corona_espadasrojas@hotmail.com,5573097499,5512302405,1000,0,0,0,M,,
Corona, Lopez,Marco,Coronaantoniomarco707@gmail.com,5575267103,,2000,0,0,0,M,,
Corona, Zayas,Yesica,coronajesse24@gmail.com,65508958,,2000,0,0,0,M,,
Corona, Zayas,David,davidcoronazayas@gmail.com,5576820019,65508958,2000,0,0,0,M,,
Corona, Ibarra,Estephani,estephanicorona18@gmail.com,7442646193,5564779055,200,0,0,0,M,,
Corona, Salazar,Héctor Hugo,hugoadcorona@gmail.com,5568633877,56912470,2000,0,0,0,M,,
Corona, Sánchez,Fernanda Paloma,jessicasanz71@hotmail,5513810122,26370653,2000,0,0,0,M,,
corona, lerma,José Alberto,mcorona@nube.sep.gob.mx,5561313866,5554455011,2000,0,0,0,M,Cita,0
Corona, Moreno,Steve Remko,remkoarkhamra@gmail.com,5574247370,5563641809,500,0,0,0,M,,
Corona, Ruiz,Yeim Viviana,Yeim7587@gmail.com,5523097156,5562061993,2000,1000,400,400,M,Cita,0
Coronado, Domínguez,Ana Laura,Laura.smile12338@gmail.com,77045393,5528735505,500,0,0,0,M,,
Coronel, Torres,Paulina Monserrat,tbsarai02@gmail.com,5566721024,5513096192,2000,0,0,0,M,,
Corral, Albarrán,Cecilia Kristal,kristal.wine.w@gmail.com,5581843010,5559663181,2000,0,1000,1000,M,,
Correa, Garcia,Diego Raymundo,Correa Marycarmen hablo.com,5539976745,67962585,500,0,0,0,M,,
Correa, Diego,Luis Antonio,diegoazul07@outlook.com,5564300525,57429808,2000,0,1000,0,M,,
Correa, Isidro,Perla jasmin,Florisidro14@gmail.com,5575361597,5581970066,2000,0,0,0,M,Cita,0
Correa, Vizcaya,María Guadalupe,lupitacorreavizcaya@gmail.com,5571648501,10862689,2000,0,0,0,M,,
Correa, Gil,Kevin Scoot,scootcorrea100@gmail.com,5548630419,5528305799,2000,0,0,0,M,,
corriente, corriente,andres,sistem_roses@hotmail.com,5554324074,,2000,1000,0,0,M,Cita,0
Corry, Gonzalez,Jonathan Moyses,jonathancgm01@gmail.com,5568004986,,500,0,0,0,M,,
Cortes, Gomez,Diego Alberto,ana1_arias@hotmail.com,55 2515 6643 ,,500,0,0,0,M,,
Cortes, Garfias,Cesar Alejandro,cesaralejandroskate@gmail.com,5539975304,5586214192,2000,0,0,0,M,,
CORTES, ALVARADO,OZIEL JISHAR,clau86iveth@gmail.com,5525252406,5563322368,2000,0,0,0,M,,
Cortes,,Claudia,cortes.claudia.vanegas@gmail.com,5544767215,58300350,0,0,0,1000,C,,
Cortes, Archundia,Keila Danahi,cortesarchundiakeiladanahi2001@gmail.com,5515777640,5583492605,2000,0,0,0,M,Cita,0
Cortes, F,Rodrigo,dianafo73@hotmail.com,55416023,,2000,0,0,0,M,,
Cortes, Rios,Álvaro emiliano,glrg@live.com.mx,5566779719,5516538882,2000,0,0,0,M,,
Cortes,,Fernando Adrian,Hypnoz14@gmail.com,5585637506,5585637506,0,0,0,1000,C,,
Cortes, Garcia,lisseth Damaris,jmcortes@syeservicio.com.mx,5545444211,5513132834,2000,0,0,1000,M,Cita,0
Cortes, Cruz,Karina,karinaaacts11@icloud.com,5512944553,58039207,2000,0,0,0,M,Cita,0
Cortes, Villegas,Michelle,michellecortes337@gmail.com,5563775465,51116608,2000,0,0,0,M,,
Cortes, Hernández,Aylin Monserrat,monserratcortes-96@hotmail.com,5513112649,58565733,2000,0,0,0,M,,
Cortes, Gonzalez,Ximena Jannet,tatth_mmo@hotmail.com,57389455,5578636526,500,0,0,0,M,,
cortes, cruz,Yared,ya.red1998@hotmail.com,5583008853,,2000,0,0,0,M,,
Cortés, Pérez,Diego Enrique,adri_cord1107@hotmail.com,5531412434,5540190324,500,0,0,0,M,,
Cortés, Guerrero,Lucia,artistvisual77@gmail.com,5564552391,5578890012,500,0,0,0,M,,
Cortés, Ramiréz,Armando,cortesrarmando@gmail.com,5530745569,5532329744,2000,0,0,0,M,,
Cortés, Cruz,Daniela Alejandra,Crucita2604@hotmail.com,5562865167,5565315900,500,0,0,0,M,Cita,0
Cortés, Ramírez,Diego,dieg.elmejor28.dc@gmail.com,5565386760,5560195551,2000,1001,1000,0,M,,
Cortés, Aguilera,David Alejandro,ericka.aguilera.medina@gmail.com,5512019091,,1000,0,0,0,M,,
Cortés, Aguilera,Diego Iván,ericka.aguilera.medina@gmail.com,5512019091,57584708,500,0,0,0,M,,
Cortés, Vizcarra,Héctor,hectorcv2001@hotmail.com,5581562673,5540472403,2000,0,0,0,M,,
Cortés, Flores,Bogart Ricardo,karo_b12@hotmail.com,5534300261,5538511624,2000,0,0,0,M,,
Cortés, Márquez,Ulises,sarags010@yahoo.com.mx,5516868115,,2000,0,0,0,M,,
Cortés, Bárcenas,Danna vanessa,Sonbar7@hotmail.com,5540943271,5534662535,500,0,0,0,M,,
Cortez, Perez,Nayely,holsqueso@gmail.com,5549687181,53912877,500,0,0,0,M,,
Cortez, Davila,Mario Alberto,marioalbertocortezdavila@hotmail.com,5567520923,5516926364,2000,0,0,0,M,,
Crespo, Arroyo,Oscar,brenn.crespo@gmail.com,5571809077,,2000,1000,0,0,M,Cita,0
Crespo, Prado,michelle,praditocheli@gmail.com,5522954446,57667729,2000,1000,250,0,M,,
Cristiani, Aguilar,Joshua Felipe,fidoaguilar.9@gmail.com,5510161311,5513794317,2000,0,0,0,M,,
Cristobal, Arias,Rosa Maria,dulce_candyar@hotmail,5568057832,5568057830,2000,0,0,0,M,,
Cristobal, Hernandez,Estrella,estrellahdz232323@gmail.com,10835877,,500,0,0,0,M,,
Croes, Navarrete,Arianne Elizabeth,ari241114@outlook.com,51202313,79908080,2000,0,0,0,M,,
Croes, Navarrete,Sebastian Alexander,sebassac@hotmail.com,5536609451,5532238752,2000,0,0,0,M,,
Cruces, Nuñez,Claudia Meera,nunezespinoza.claudia@gmail.com,57391673,5531040564,2000,0,0,0,M,,
Cruces, Nuñez,Jorge Adrian,nunezespinoza.claudia@gmail.com,57391673,5531040564,2000,0,0,0,M,,
Cruz, Aniceto,Lizeth Abigail,abigail_aniceto_@hotmail.es,5531006838,5543892641,2000,0,0,0,M,,
Cruz, Juarez,Jashia,abligurition223@gmail.com,9981017163,5510588522,2000,0,0,0,M,,
CRUZ, MARTINEZ,ADRIANA ISABEL,adriana.cmtz@hotmail.com,445518907005,5518907005,2000,0,0,0,M,,
Cruz, Bravo,Nathalie Alessandra,alessandra_cruz713@outlook.com,63619725,5522982318,1000,0,0,0,M,,
Cruz, Gonzalez,Alondra Selene,alondrithaselenitha11@gmail.com,5545376188,5520592232,500,0,0,0,M,,
Cruz, Salazar,Andrea,andreacruzs182@hotmail.com,5516954558,,200,0,0,0,M,,
cruz, camacho,luis angel,anguel-r7@hotmail.com,53600731,5566316691,2000,0,0,0,M,,
Cruz, Meraz,Yessica,angy.mer160824@gmail.com,5566681360,5538658262,2000,0,200,0,M,Cita,0
Cruz, Hernandez,Paulina,annyucranck@icloud.com,5535634612,5520578539,2000,0,0,0,M,,
Cruz, Lira,Noemi Dayan,arely.diazcruz@gmail.com,68370115,,1300,0,0,0,M,,
Cruz, Godinez,Brenda Ashanty,ashantycg140@gmail.com,9934155825,,2000,0,0,0,M,,
Cruz,,Roberto,Beto.cruz.a13@gmail,7731661559,7731290795,0,1000,1000,1000,C,,
Cruz, Castro,Guadalupe,birdycc12@gmail.com,5516377392,26353676,2000,0,0,0,M,,
Cruz, Ortega,Brayan,braycruo@gmail.com,5536346101,,2000,0,0,1000,M,,
cruz, pérez,carolina,carolinacrperez86@gmail.com,5517586381,26970817,2000,0,0,0,M,,
Cruz, Meza,Erika Andrea De la,cmeza_alducin@yahoo.com.mx,5521371718,7223132027,2000,0,0,0,M,Cita,0
Cruz, Garcia,Fernanda,concepciongarcia.salinas@gmail.com,5519924807,53686257,2000,0,0,0,M,,
Cruz, Alfaro,Arely Tais,cruzarely1im@gmail.com,55374810,5517986870,500,0,0,0,M,,
Cruz, Escamilla,Jordan Ricardo,Cruzj8902@gmail.com,5544464673,,500,0,0,0,M,,
Cruz, Guzmán,shaian michel,cruzmichel77@gmail.com,5549523089,5551919631,1500,0,0,0,M,,
Cruz, Robellada,Aldo Antonio,cruzr66@hotmail.com,58882791,5532673863,500,0,0,0,M,,
Cruz, Cárdenas,Ilse Daniela De la,daniela.dlc05@gmail.com,59939329,5522966764,500,0,0,0,M,,
Cruz, Fuentes,Daniela,danielacarolinacfuentes@gmail.com,5573532901,67311224,2000,0,0,0,M,,
cruz, Mendoza,Daniela De la,daniy.dlcm.103@gmail.com,5546603809,5564655067,2000,0,0,1000,M,,
Cruz, Rodriguez,Oziel Roberto,dc440203@gmail.com,5535723698,26460663,2000,0,0,0,M,,
cruz, sanchez,diego,dcruz0935@gmail.com,5542991957,17386302,2000,0,0,0,M,Cita,
Cruz, García,Evelyn,ec35604@gmail.com,5559975267,5526540944,2000,0,0,0,M,,
CRUZ, SANCHEZ,EDUARDO,eduardocruzsanchez17@gmail.com,5524677467,53004433,2000,0,0,0,M,Cita,
Cruz, Hernandez,Fidel Ehekatl,Ehek.avicii7@gmail.com,5523407810,5517950577,2000,1000,0,0,M,,
Cruz, Villanueva,Jesús Emmanuel,Emmanuelcruzvillanueva3@gmail.com,5559781960,5575448557,500,0,0,0,M,,
Cruz, Ceron,Erick Michel,erickcruz.513@gmail.com,7024996,55544807080,2000,0,0,0,M,,
Cruz, Zamudio,Esdras Samuel,esdras.minetoos@gmail.com,5546546402,5571370761,2000,0,0,0,M,,
Cruz, Cruz,Luis Antonio,fabyscm01@hotmail.com,5520787422,50871124,2000,0,0,0,M,,
Cruz, Hernandez,Gabriel,gabriel_cruz@outlook.com,5520212828,5520212831,2000,0,0,0,M,,
cruz,,gabriel,gabriel_cruz999@outlook.com,5520212831,,0,500,500,0,Q,Cita,0
Cruz, Escalante,Luis Enrique,gabriela.escalante@hotmail.com,5527529200,,2000,0,0,0,M,,
cruz, Martinez,Alfredo De la,Gabrieladcm92@gmail.com,5524257576,53236966,2000,0,0,0,M,,
Cruz, Salazar,Gael,Gael.crsala.2004@gmail.com,5516954558,,200,0,0,0,M,,
Cruz, González,Jessica,gina.gonzalez.coronel@gmail.com,5515876533,5556030959,3000,0,0,0,M,,
Cruz, Estrada,Grecia,greciacruz432@gmail.com,5554358656,24897797,2000,0,1000,0,M,,
cruz,,ana cristina,gulliana23012000@gmail.com,53809076,5513710232,0,1001,500,500,F,,
Cruz, Cruz,César,imcrs18@gmail.com,5545292907,,2000,0,0,0,M,,
Cruz, Cortés,Leslie Jennifer,ing.cortes.rod@gmail.com,5547296979,,2000,0,0,0,M,,
Cruz, Pardo,Litzy itzel,Itzel.Litzy.c99@gmail.com,5575241573,5570704912,3400,0,0,0,M,,
Cruz, Hernandez,Itzel naviky,Itzelnaviky@gmail.com,5574233815,5569732820,700,1000,0,0,M,,
Cruz, Hernández,Ivonne,Ivonne20035@outlook.es,5524000361,5549543970,2000,0,0,0,M,,
Cruz, Carrillo,Juan pablo,j.p-repsol@hotmail.com,5540320618,5591907152,500,0,0,0,M,,
Cruz, Mena,Alondra,janmebo@hotmail.com,73144127,5561363820,2000,0,0,0,M,,
Cruz, Orea,José Alberto,jarelsoto123@gmail.com,7731882542,5579083871,500,0,0,0,M,,
cruz, Hernández,Jessica de la,jessdlh27@gmail.com,5560288176,,2000,0,0,0,M,,
CRUZ, PERALTA,TRISTHAN EMMANUEL,jesykperalta9287@gmail.com,5579295956,5521888350,500,0,0,0,M,,
Cruz, Antonio,Juan Salvador,juan_salvador1@hotmail.com,5542225061,,2000,1000,1000,0,M,,
cruz,,Juliette De la,juliettebaz07@gmail.com,5534534097,,0,1000,0,0,F,,
Cruz, Reyes,Diana Kristel,karina-akrs@hotmail.com,5520537351,5582620647,2000,0,1000,0,M,Cita,
Cruz, Juárez,Laura Fernanda,laura.alaska.x@gmail.com,5520958322,5514095904,2000,0,0,200,M,,
Cruz, Guzmán,Mariana,Littlered9974@hotmail.com,5549019300,5545461762,2000,0,0,0,M,,
cruz, lopez,lizbeth,lizcruzlopez18@gmail.com,5531341004,5561045692,2000,1000,0,0,M,Cita,0
Cruz, López,María del Carmen,lizcruzlopez18@gmail.com,5578739255,120202120,2000,1000,0,0,M,,
Cruz, Lopez,Samanta,lopezvenegas_rosa@yahoo.com.mx,57357984,5573840334,200,0,0,0,M,,
Cruz, Hernandez,Andrea Mercedes,luciah.lesp.lve@.com,445523195878,445528532571,2000,0,0,0,M,,
Cruz,,Luis angel,luiscruz588@hotmail.com,7441066481,,0,0,0,1000,C,,
Cruz, Sansores,Melvin,m.sansores@hotmail.com,5544737871,5544737871,2000,0,0,1000,M,,
Cruz, Martinez,Karen Michelle,malaquiascruzdominguez@yahoo.com.mx,5561719010,26395054,500,0,0,0,M,,
Cruz, Basilio,Mariana,manisbas@hotmail.com,2323232121,3234322232,2000,1000,0,0,M,,
Cruz, Velázquez,Marco Uriel De La,mari_veltor@hotmail.com,5522808515,5530130462,2000,0,0,0,M,,
Cruz, Bautista,Sergio Eduardo,maria.bautista@cfe.mx,5528638535,69948513,2000,0,0,0,M,,
Cruz, Morales,Maria Fernanda,mariafernandacm439@gmail.com,5573842513,57112724,200,0,0,0,M,,
Cruz, Valderrama,Mariana Berenice de la,marianabere26@gmail.com,5566062669,59372481,2000,1000,0,0,M,,
cruz, Morales,Mario José De la,Mariodelacruz19@outlook.com,7541033866,,2000,0,0,0,M,,
Cruz, Pérez,Luis Gerardo,maryperez_cholin@hotmail.com,5571201300,5531430467,2000,1150,0,1000,M,,
Cruz, Galván,Danna Sofía,maytehernandez292@hotmail.com,50868673,5540972155,2000,0,0,0,M,,
CRUZ, GOMEZ,MIGUEL ANGEL,migue_2000_angel@live.com.mx,5577514880,41738781,2000,0,0,0,M,Cita,0
Cruz, Garcia,Joshua,Mime_69@hotmail.com,5530549599,57999121,2000,0,0,0,M,Cita,0
Cruz, Miranda,Alan,miranda225432@hotmail.com,5583797504,5578732390,1000,0,0,0,M,,
Cruz, Pedres,Lisset Mireille,mireillelis@hotmail.com,5560738330,5523077288,2000,0,0,0,M,,
Cruz, Miguel,Moisés Eliezer,moiseseliezer2000@gmail.com,5538639107,,2000,0,0,0,M,Cita,0
Cruz, Rodríguez,Monserrat,monsecruz1704@gmail.con,5575036973,5572140883,200,0,0,0,M,,
Cruz, Reyes,Itzel Montserrat De la,montseqr6@gmail.com,5562929052,5572915040,2000,0,0,0,M,Cita,0
CRUZ, ALVAREZ,MONICA EDITH,monycruz78@yahoo.com.mx,2272762979,5517555739,200,0,0,0,M,,
Cruz, Galvan,Emiliano,mrosygal@ gmail.com,5525319772,52070108,2000,0,0,0,M,,
Cruz, Domínguez,Nayla Elizabeth,naylaelizabethcruzdominguez@gmail.com,5544539841,7711798630,2000,0,0,0,M,Cita,0
Cruz,,Daniel,nellyazcapovs.@hotmail.com,5510479346,,0,0,0,500,C,,
Cruz, Baz,Karen De la,nerak6408@gmail.com,5540574148,5528535720,2000,1000,0,0,M,Cita,0
Cruz, Baliño,Karla Grisel De La,ocruz.mon@hotmail.com,5512877914,26020055,500,0,0,0,M,Cita,0
Cruz,,Miguel Angel De La,olvier2012@hotmail.com,5570396597,5528077498,0,0,0,1000,C,,
Cruz, Cruz,Jesus,ornu_4@hotmail.com,5572335558,,2000,0,0,0,M,,
Cruz, Flores,Óscar Adair,oscar.cruz2013a@gmail.com,5583508001,5523135610,2000,0,0,0,M,,
CRUZ, MONTAÑO,ANAYANSSI SARAI,osowhinepooh2010@hotmail.com,5532702827,,2000,0,0,0,M,cita,0
Cruz, Rojas,Julia Fernanda,papeleriamultipapel@gmail.com,5560065904,75800137,2000,0,0,0,M,Cita,0
Cruz, García,Eduardo Rodrigo,paulina_1311@hotmail.com,5567526485,5572164270,2000,0,0,0,M,Cita,0
Cruz, Garcia,Quetzalli Guadalupe,Quetzalli_cruz@outlook.es,5570592290,5549220939,2000,0,0,0,M,,
Cruz, Juarez,Zaira Alexa,ratonsito.cruz@hotmail.com,5577817333,5521438807,2000,0,0,0,M,,
Cruz, Barron,Ricardo,ricardo-cruzbarron@hotmail.com,5570313060,5538129143,2000,0,0,0,M,,
Cruz,,Alfredo De La,Rociomedina26@Yahoo.com,53236966,445518889050,0,1000,0,0,Cita,Cita,0
Cruz, Gonzalez,Cesar Alfredo,rosaelvia.cruz@hotmail.com,5515022593,,2000,0,0,0,M,,
Cruz, Lopez,Sofia,sofycruzlopez150@gmail.com,5543963618,,2000,1000,0,0,M,,
Cruz, Vieyra,Alan Hernán,th- er-esa_8@hotmail.com,5514828437,5538905405,2000,1000,500,0,M,Cita,0
Cruz, Estanislao,Vanessa,vanne01coldplay@gmail.com,5525174254,5519283035,2000,0,0,0,M,Cita,0
Cruz, Galicia,Andrés Alberto,vans_to@hotmail.com,5568905345,5562032054,2000,0,0,0,M,,
cruz, Vidaurri,Ivan De la,Vidaurrigrande@gmail.com,5520209935,53030546,2000,0,0,0,M,,
Cruz, Cruz,Zulema,violetzulema1888@gmail.com,5540350530,5534429320,2000,0,0,0,M,Cita,0
cruz, ubera,wendoline,wencruz2603@gmail.com,5535818907,5551949428,2000,0,1000,0,M,,
Cruz, Ríos,Yazmin,yaz.cruzc.21@gmail.com,5545340602,5517550371,200,0,0,0,M,,
Cruz, González,Rebeca,yemode2014@gmail.com,57627249,5534636602,2000,0,0,0,M,,
Cruz, Pelayo,Valeria Michelle,yeni_lpb@hotmail.com,5533316498,,2000,0,0,0,M,,
Cruz, Yerena,Pamela Ivette,yerenah@yahoo.com,5513794239,5510114723,2000,1000,1001,0,M,Cita,0
Cruz, Gonzalez,Angel ramon,Yiyi_ros@live.com,445581586181,,500,0,0,0,M,,
Cruz, Villeda,Oscar,Yobarney1@gmail.com,5564035778,5585423702,2000,0,0,0,M,,
Cuamani, Tapia,Dira,dirahudson1@gmail.com,5561893436,5514205162,2000,0,0,0,M,Cita,0
Cuando, Aguila,Brandon Farid,Brandon.C.Aguila99@gmail.com,5577975950,68317411,2000,0,0,0,M,cita,0
Cuapio, Cotero,Erick Adrian,cotero_232@hotmail.com,5547137692,5514870632,500,0,0,0,M,,
CUARÓN, MENDOZA,ROBERTO,magdamendoza7.5@gmail.com,5556131487,445522653623,1000,0,0,0,M,,
Cubas, Sánchez,Brandon Yamil,csby26tm@gmail.com,41204149,5549658257,2000,0,0,0,M,,
Cubas, Sanchez,Leslie Ixchel,csly28u@gmail.com,5535853232,41204149,2000,0,0,0,M,,
Cuellar, Acevedo,Karla ximena,betyacevedo@live.com.mx,5545206352,65878926,500,0,0,0,M,,
Cuellar, Garcia,Rodrigo,eskeit_123@hotmail.com,5563174746,,2000,1000,0,0,M,Cita,0
Cuéllar, López,Marian Estefanía,Fannycorely@gmail.com,5583604138,5539295346,1500,0,0,0,M,,
Cuenca, Castillo,Juan Carlos,fani_10.akii@hotmail.com,5542599299,7731111218,2000,0,0,0,M,,
Cuenca, Martínez,Jessica Alondra,Fresi_alondra@live.com.mx,5538763277,5548208227,2000,0,0,0,M,Cita,0
Cuevas, Ramos,Brenda Guadalupe,brengcr.25@gmail.com,5554644519,53990727,2000,0,0,0,M,,
Cuevas, Mijangos,Candi Deisi,candideisicuevas@gmail.com,2226787729,2281232286,2000,1000,1000,1000,M,Cita,0
Cuevas, Castro,Alvaro Baruch,castrobaruch5@gmail.com,5534824860,5537361656,2000,0,0,0,M,,
Cuevas, Soto,Emiliano,cuevassotoe@yahoo.com.mx,5555555555,,2000,1001,0,0,M,,
Cuevas, Luna,Edward Leonel,edwardleonel 248@gmail.com,5531313498,53824261,3000,1000,0,0,M,Cita,
Cuevas,,Leonel,edwinning3043@gmail.com,4772751494,4727371230,0,0,1000,0,Q,,
Cuevas, Martínez,Valeria,estephanfany@hotmail.com,5581739743,5576971425,2000,1000,0,0,M,Cita,0
Cuevas, Vázquez,Fernando Rafael,fernandocuevasvazquez@gmail.com,57576096,,500,0,0,0,M,Cita,0
Cuevas, Vázquez,Natalia Alexandra,natialexcv@gmail.com,57576096,,500,0,0,0,M,Cita,0
cuevas, guerra,mildred millerel,omar_mywebs@hotmail.com,5529584671,5523695802,2000,0,0,0,M,,
Cuevas, Mata,Frida Samantha,sam_fri14@hotmail.com,5571767972,5521530398,500,0,0,0,M,,
Cuevas, Ayala,Felipe Sebastián,yesenia.ayalaanaya@gmail.com,5525415991,5527429050,2000,0,0,0,M,,
Damian, tomas,Mariana Abigail,pato8029@hotmail.com,5574103788,5566727401,2000,0,1000,0,M,,
DANIEL,,MAXIMILIANO,agustin.daniel@prodigy.net.mx,5519078582,5541923220,0,1000,0,0,F,,
Daniel, Barrón,Dante Issac,anairam.ortga@gmail.com,58119038,5584476422,2000,0,0,0,M,Cita,0
Davalos, Huerta,Cinthia,cinthya17042007@hotmail.com,5538217951,58900618,1900,0,0,0,M,,
Davalos, Acevedo,Maria Fernanda,fersu01@outlook.com,5513889096,5549036404,500,0,0,0,M,,
Davalos, Acevedo,Joana,jdamx01@outlook.com,5549096404,,500,0,0,0,M,,
davila, alvarez,andrea,ada_kats@hotmail.com,55562859,,2000,0,0,0,M,cita,0
Davila, Cornelio,Jonhatan Yeray,corsa1155@hotmail.com,26221731,90156913,2000,0,0,0,M,Cita,0
Dávila, Gálvez,Elvia Yamil,elviayamd@outlook.com,5528907510,66116935,2000,0,0,0,M,cita,
Dávila, Hernández,Yadira Gisell,giss310102@gmail.com,51210719,5585242130,500,0,0,0,M,,
Dávila,,Leslie Raziel,les.manra14@gmail.com,5531421561,5572363862,0,0,0,1000,C,,
Dávila, González,Luis Alberto,yolapff@yahoo.com.mx,5513669287,5549783788,2000,0,0,0,M,,
Dávila, González,Luisa Fernanda,yolapff@yahoo.com.mx,5513669287,5549783788,2000,0,0,0,M,Cita,0
De, Jesús,Marco Antonio Cortes,Alejandrubix@icoud.com,5522123254,56409435,2000,0,0,0,M,,
de, Oca,Luis Miguel Nava Montes,anaemontes@gmail.com,57405845,445532715562,500,0,0,0,M,,
De, jesus,Areli Bethsani Rosales,beth.army@hotmail.com,5538763275,21566245,2000,0,1000,0,M,Cita,0
De, Anda,Mabel Pérez,brendadeanda0@gmail.com,70947188,5540449410,1000,0,0,0,M,,
de, oca,Monica Beatriz Flores Montes,ebmontesdeoca@gmail.com,445521287850,445580948355,2000,0,0,0,M,,
de, Oca,Fernanda Cárdenas Montes,ferjack200085@gmail.com,57710104,5511484601,2000,1001,0,0,M,Cita,0
De, Jesús,Homero González,homerglez0585@gmail.com,5554128024,,2000,0,0,0,M,,
de, Oca,Jorge Arturo Flores Montes,jorgearturo3B@outlook.com,5521839380,5578104093,2000,0,0,0,M,,
de, Labastida,Leslie Alexa Díaz,lesliediaz996@gmail.com,5540754297,5535006468,2000,0,0,0,M,,
De, Avila,Ximena Matilda Chiavaroli,Margaritadeavila1971@gmail.com,5527756888,5535104564,500,0,0,0,M,,
de, oca,Melissa sanchez montes,melissamontesdeoca2015@gmail.com,5545679773,5550763389,2000,0,0,0,M,,
de, Oca,Edgar Enrique Rosas Montes,minervamdor@hotmail.com,5546748866,532391297,500,0,0,0,M,,
De, Anda,Lorena García,ruthsita23@hotmail.com,5538306819,5585995026,2000,0,0,0,M,,
De, Roque,Linda Sofia Martínez,sofiamartinezderoque@gmail.com,5577914229,,2000,0,0,1000,M,Cita,0
de, leon,Yamile Hernandez Ponce,yajudith@hotmail.com,5585571524,55678396,2000,0,0,0,M,,
De, jesus,Valeria Ruiz,Yesicaruiz2481@gmail.com,5572951020,5559027193,2000,0,0,0,M,,
De, Lucio,Zoe Raymundo Cervantes,zraymundocdl@hotmail.com,5571365898,5545525942,2000,0,0,0,M,,
Deaquino, Calleja,Vladimir,Vlady_20017@hotmail.com,5572223257,5565139434,500,0,0,0,M,,
Del, Valle,Leonardo Armando Palma,apalma78@gmail.com,5510106361,5516871352,2000,1000,1000,0,M,,
Del, Angel,Jose Antonio Aquino,aquino_del_angel_jos@outlook.es,5535519958,5518429767,2000,0,0,0,M,,
Del, Río,Camila Labastida,ayme_gdb@hotmail.com,5586190749,5543691583,500,0,0,0,M,,
Del, Velle,Joshua Isaac Santana,delvallesud@hotmail.com,5549851135,5572344222,2000,0,0,0,M,,
Del, rosal,Emily Montiel,emily_montiel08@outlook.es,5536733115,70221117,2000,0,0,0,M,,
Del, Agua,Eder Cruz,hazard10barca10@gmail.com,5532778223,5516926308,2000,1000,0,0,M,Cita,0
DEL, PUERTO,MIGUEL ANGEL GONZALEZ,miguelpopeye57@Gmail.com,5559918023,,2000,0,0,0,M,,
Del, Angel,Luis Fernando Morado,moradodelangel.890@gmail.com,82834818,5569612500,2000,1000,0,0,M,Cita,0
Del, Ángel,Naomi Hazel,paty_vj71@hotmail.com,5534995900,,2000,0,0,0,M,Cita,0
Delgadillo, Ruiz,Mauricio,mdruuruiz@gmail.com,5561135452,53533039,2000,0,0,0,M,,
Delgado, Gomez,Jonathan Ali Arafath,Arafathdelgado@gmail.com,5549670062,26264494,2000,0,0,0,M,,
Delgado, Hernández,Jennifer,jennyphrdehz@gmail.com,5562065257,5528182583,2000,0,0,1000,M,,
delgado, soria,melanie giselle,meligis01@gmail.com,59348142,5536503243,2000,0,0,500,M,Cita,0
Delgado, Reyes,Ramsés,rddelaro@telmex.com,7773299903,7771628185,2000,0,0,0,M,,
Delgado, Salinas,Abraham,rubbidelgado@hotmail.com,5555036366,,2000,0,0,0,M,,
Delgado, Martinez,Antonio de Guadalupe,yolmar_cruz@hotmail.com,80014459,5533866268,2000,1000,0,0,M,Cita,0
Delgado, Flores,Yordi,yovis.pollito@hotmail.com,5518225717,5568411118,2000,0,0,0,M,,
Demetrio, Salas,Luz Angela,larissa_ds97@hotmail.com,5517026330,,2000,0,0,0,M,,
DIAS, SANDOVAL,LUIS GUSTAVO,dluis3066@gmail.com,5525235035,,2000,0,0,1000,M,,
DIAZ, FLORES,DILAN ALEXIS,3mschache@outlook.com,5565555705,65811366,2000,0,0,0,M,,
Diaz, Chavéz,Alan Irían,alanonfire74@gmail.com,41201681,5554167867,2000,0,0,0,M,,
Diaz, López,Ximena Renata,alejandra0130@hotmail.com,5541916047,5575952416,2000,0,0,0,M,,
Diaz,,Ana Lucía Corona,anacd10@hotmail.com,5540070392,5553343115,2000,0,200,0,Q,Cita,0
Diaz, Lopez,Jimena Abigail,anaclaraylibertad@gmail.com,5540657483,,2000,0,0,0,M,,
Diaz, Ramirez,Andrés,andres.diazlibres@gmail.com,5522462191,,300,0,0,0,M,,
Diaz, Alejandro,nayeli,carlosjr310504@gmail.com,5541012306,5531373221,100,0,0,0,M,,
DIAZ, FLORES,JESUS ANDREY,chuchito_flores3msc@outlook.com,5565555705,65811633,2000,0,0,0,M,,
Diaz,,Angel Saeed,cruzazulvida@outlook.com,5583667112,5767525,0,0,0,1000,C,,
Diaz, Mendoza,Daniel Antonio,d.mendoza_2000@hotmail.com,5563238243,,2000,0,0,0,M,,
Diaz, Basurto,Melanie,diazbasurtom.m@gmail.com,5578855324,55265853,2000,0,0,0,M,Cita,0
Diaz,,Tania Fátima,diazgarciataniafatima36@gmail.com,5565784605,,0,0,0,1000,C,,
Diaz, Rodriguez,Jesus Yair,diazyair917@gmail.com,22892806,5571925357,2000,0,0,0,M,,
Diaz, González,Dulce Maley,dulce_20000@outlook.com,57307648,5575236618,2000,0,1000,0,M,,
Diaz, Manríquez,Karen Fernanda,heart_fer18@hotmail.com,5544889868,,2000,1000,1000,0,M,Cita,0
Diaz,,Ivonne,ivonnediaz299@gmail.com,5587372417,,0,1001,0,500,C,Cita,0
Diaz, Chavéz,Luis Ethan,ledc17@gmail.com,41201681,5554167867,2000,0,0,0,M,,
Diaz, Gomora,Sandra,lety_gomora@live.com.mx,5513754256,,2000,0,0,0,M,,
Diaz, Sauri,Fernanda,marizinhasauri@hotmail.com,5559040225,5559040225,2000,0,0,0,M,,
Diaz, Marin,Kian Uriel,riverahector500@gmail.com,70426054,5564599676,2000,0,0,0,M,Cita,0
Diaz, Molina,Yael Damian,s.molina.r9.aragon@gmail.com,5529498691,,2000,0,0,0,M,,
Diaz, Noyola,Alessandro,Sandro.diaz.noyola@gmail.com,5543814899,5531328450,2000,1000,0,0,M,,
diaz,,sofia,sofia_day12@outlook.com,7361188040,5539132625,0,2200,0,0,C,Cita,0
Díaz, Gómez,Abigail,abigaildazgmez@yahoo.com.mx,5554151386,5520231570,2000,0,0,0,M,,
Díaz, Rios,Rodrigo Leontiev,ananrod@gmail.com,70448871,5564876907,1000,0,0,0,M,,
Díaz, Morales,Andrés,andresdms888@gmail.com,58975994,,500,0,0,0,M,,
Díaz, Peralta,Brenda,bdp_28@outlook.es,5540682150,15516734,500,0,0,0,M,,
Díaz, Cruz,Bruno,bruno.haziel.diaz.cruz@outlook.com,5578672249,5578259679,2000,0,0,0,M,,
Díaz, Cruz,Luciano,chidori100@hotmail.com,50235180,5548871508,2000,0,0,0,M,,
Díaz, López,Erick Oswaldo,dk13_bx3@hotmail.com,5560900462,,2000,1000,1000,1000,M,,
Díaz, Rodríguez,Fátima Angélica,fdiazr30@gmail.com,5549581383,,0,0,0,1000,M,,
Díaz, Zavala,Brandon,garu.619@hotmail.com,5567504304,15510892,2000,0,0,0,M,,
Díaz,,Iker,ikerfutt11@gmail.com,5534040399,5539808397,0,0,0,1000,C,,
Díaz, Reyes,Indra Elisha,indrxx@hotmail.com,5534397180,53829888,2000,0,0,0,M,,
Díaz, Arce,Jose Antonio,Jdiazh@axtel.com.mx,5559024612,5567485021,2000,0,0,0,M,,
Díaz, Durán,Christian Daniel,leonor_durag@hotmail.com,5591886203,5578449884,2000,0,0,0,M,,
Díaz,,Mary Gloria,mary_glo@live.com,5540856587,,0,0,0,1000,C,,
Díaz, Alcántara,Erick Brandon,mcarmenae@live.com.mx,5533454423,5572707803,2000,0,0,0,M,,
Díaz, Sánchez,María Guadalupe,mdiaz1@jpm.edu.mx,5533222799,5554340628,2000,0,0,0,M,Cita,0
Díaz, Estrada,Juan Antonio,mediloveclau81@hotmail.com,5516578833,5520782128,50,0,0,0,M,,
Díaz, Rojas,Guillermo,mematzoo1999@gmail.com,56519460,5545354462,2000,1000,1000,1000,M,,
Díaz, Esquivel,Adrián,miner25op@gmail.com,5542332875,17370063,500,0,0,0,M,,
Díaz, Morgado,Javier Tonathiu,nantimezone@hotmail.com,5527280449,,2000,1001,0,0,M,,
Díaz,,Brandon Michel,naterasnayeli@gmail.com,445531742767,445572094567,0,1150,0,0,F,,
Díaz, Paz,Victoria,paz.alejandrar@gmail.com,5545386177,,2000,0,0,0,M,,
Díaz, Aboytes,Yetzirah Marian,yetzirah_2001@hotmail.com,5517004718,57677793,2000,0,0,0,M,,
Diego, Cruz,América Montserrat,cruzperezsusana301985@gmail.com,5518639191,5573962308,500,0,0,0,M,,
Diego, Guzmán,Luisa Ariadna,Patydiegoguzman@hotmail.com,5537272022,5545897689,2000,0,0,0,M,Cita,0
Dimas, Garcia,Daniela,Danieladg130604@gmail.com,5511722138,5548838977,500,0,0,0,M,,
Dimas, Escobar,Jesús Maximiliano,jesusdimas855@gmail.com,5583646786,53079997,2000,0,0,0,M,,
dios, garcía,jorge antonio juan de,jorgeantoniojuandedios@gmail.com,5528417571,58293201,2000,0,0,0,M,,
Dircio, Carreto,Ángel,angel.09dircio@gmail.com,7222294172,7561112946,2000,0,0,0,M,,
Domingo, Gonzalez,Diego,diegotala2014@gmail.com,5518401647,5527208213,2000,0,0,0,M,,
Dominguez, Ruiz,Danna,abel_do14@yahoo.com.mx,5513011040,5527663489,2000,0,0,0,M,,
Dominguez, Duque,Alan Diego,alandominguezduque@hotmail.com,5566798234,5585442683,2000,0,0,0,M,cita,0
Dominguez, Becerra,Osman Manuel,bedobe.tomaro@gmail.com,61921564,,2000,0,0,0,M,,
Dominguez, Aviles,Alejandro,bubalo20.ad@gmail.com,5546719740,7122080528,2000,0,0,0,M,,
Dominguez, Rosas,Brisa Ximena,cesardomin.2002@yahoo.com.mx,5534024514,58595120,2000,1000,1000,0,M,Cita,0
Dominguez, Travieso,Karla,chapistravieso.123@gmail.com,7561150664,,2000,0,0,0,M,Cita,0
Dominguez, Muñoz,Christian,chris28604@gmail.com,5513488607,5582030499,500,0,0,0,M,,
Dominguez, Zapata,Daniela,danieladominguezzapata1221@gmail.com,5573688505,5513434735,2000,0,0,0,M,,
Dominguez, Gerardo,Nayeli,dominguezgerardon@hotmail.com,5572097813,,2000,0,0,0,M,,
dominguez, guerrero,andrea,dominguezguerreroandrea@gmail.com,5585501438,,2000,0,0,0,M,,
Dominguez, Toto,Gustavo,gilygus10@gmail.com,9711576631,9711267683,2000,1000,1000,0,M,,
Dominguez, Monroy,Ishai Joshua,imonroyg@cultura.gob.mx,5571789857,53063522,2000,0,0,0,M,,
Dominguez,,Jacqueline,Jacquelinuuur55@gmail.com,5532081257,5512693621,0,0,0,500,Cita,Cita,0
Dominguez, Castro,Suheyli,lysandro_nathaniel@hotmail.com,5565729369,5564909146,2000,0,0,0,M,,
Dominguez, Espinosa,Maria Fernanda,mafer.dominguez2012@gmail.com,5527599581,5533528787,2000,0,0,0,M,,
Dominguez, Brito,Abraham Gabriel,mare_3197@hotmail.com,5538931644,,1000,0,0,0,M,,
Dominguez, Garcia,Javier Antonio,mirindagmo@hotmail.com,5534906018,,2000,0,0,0,M,Cita,0
Dominguez, Espinosa,Samantha,Samanthade002@gmail.com,5533528787,5519230708,2000,1000,0,0,M,Cita,0
Domínguez, Reyna,Daniela,danydom0626@gmail.com,5525591000,5530389387,0,0,0,500,M,,
Domínguez, García,Jacqueline,gutierrezbetty72@yahoo.com.mx,5512693621,24558343,2000,0,0,0,M,,
Domínguez,,Rubén Hativé,hative3627@hotmail.com,5511331753,,0,0,0,1000,C,,
Domínguez, Olarte,Jose Angel,jadc2108@gmail.com,55264413,5551528161,2000,0,0,0,M,,
Domínguez, López,MIGUEL ANGEL,madlacg1619@gmail.com,55264413,5555092816,2000,0,0,0,M,,
Domínguez, Soria,Alfredo,magusoro.1980@hotmail.com,5560967592,5559651824,1000,0,0,0,M,,
Domínguez, Aquino,María Fernanda,marfer2004DA@gmail.com,57356506,5532267057,500,0,0,0,M,,
DOMÍNGUEZ, Barajas,Alondra,rociogriosg17@gmail.com,5578786397,5531945390,2000,0,0,0,M,,
Domínguez, Olarte,Vania Paola,vpdc0125@gamil.com,55264413,5551528161,2000,0,0,0,M,,
Donato, Cruz,Maximiliano,maxdonato@outlook.com,5536988091,55473449,2000,0,0,0,M,,
Donato, Jiménez,Gael Jesús,sussan00@hotmail.com,5540648530,5562223206,2000,0,0,0,M,,
Donjuan, Peralta,Bernardo Uriel,emdonjuan@hotmail.com,66465224,5540840491,2000,0,0,0,M,,
Dorantes, Lozano,Aurea Aranzanni,aurea_lozano@hotmail.com,5528222811,5520294185,1350,0,0,0,M,,
Dorantes, Durán,Denisse,breakingdenisse@gmail.com,5524075235,,2000,0,1000,1000,M,Cita,0
Dorantes, Velazquez,Melanie joys,dorantes_ms@outlook.es,5566769860,5581038221,500,0,0,0,M,,
DORANTES, SALMERON,CESAR IVAN,dorantezs@outlook.es,5567906608,,2000,450,0,0,M,Cita,0
Dorantes, Padila,Edson Efrén,Edorantes@mundomex.com.mx,5518878160,5512007715,500,0,0,0,M,,
Dorantes, Vizcaino,María Fernanda,mafedovi7@gmail.com,5565525924,5534644168,2000,0,0,0,M,,
Dormínguez, Cervantes,César Emilio,roedoresmcc@hotmail.com,5561841861,87164584,2000,0,0,0,M,,
Doroteo, Sanchez,Emilio Ivan,elizabethivan@live.com.mx,5526928473,,2000,0,0,0,M,,
Duarte, Hernández,Francisco Antonio,fd_215@hotmail.com,7731497947,17737326703,2000,0,0,0,M,,
Duarte, Soriano,Israel,isduso_07@hotmail.com,5515875226,5582589748,2000,0,0,500,M,,
Dueñas, Álvarez,Fernando Javier,Fernando.duenasalvarez@gmail.com,75948832,5529211621,2000,0,0,0,M,Cita,0
Duran, Crisostomo,Pablo,duranmario090@gmail.com,57430906,5525106982,2000,0,0,0,M,,
Duran, Moreno,Esmeralda sofia,macelupe@gmail.com,5548005325,,2000,0,0,0,M,,
Duran, González,Carlos,zero380@hotmail.com,5584269837,,500,0,0,0,M,,
Durán, Rivera,Kevin Yael,84itzel@gmail.com,53232855,5522506536,2000,0,0,0,M,,
Durán, Luna,Miguel,duranhr96@gmail.com,5546898106,5532183505,2000,0,0,0,M,,
Durán, Pérez,Gael,oswaldo_deyta@yahoo.com.mx,5522581993,5580054957,2000,0,0,0,M,,
Durán, Nava,Francisco,vianey.nava71@gmail.com,445530000000,45530297654,2000,1000,1000,0,M,,
Echeverria, Rivera,Angel Mauricio,echeverriaa96@gmail.com,5545158878,5545360327,2000,0,0,1000,M,,
Echeverría, Vargas,Benjamin,luzmava8614@gmail.com,5519674091,5521008154,500,0,0,0,M,,
Elias, Mendoza,Kenia,l_yael_04@yahoo.com.mx,56487068,5540799198,2000,0,0,0,M,Cita,0
Elizalde, Mundo,Aaron,aaronelizalde16@ gmail.com,5538370869,5533453922,200,0,0,0,M,,
Elizalde, Fuentes,Fatima Andrea,drako8811@gmail.com,5542266046,5537427743,2000,0,0,0,M,,
elizalde,,Isamar,horacio_e@hotmail.com,5522718133,53581485,0,0,1000,0,Q,,
Elizalde, Martinez,Rafael,horacio_e@hotmail.com,5522718133,53581485,2000,0,0,0,M,,
Elizalde, Martinez,Isamar,IsauraMtzE@outlook.com,5535529399,5534777735,2000,0,0,0,M,Cita,0
Elizalde, Flores,Mayrin Zugeily,Zugelizalde@gmail.com,5583527040,5544035920,2000,0,0,0,M,,
Encarnación, Castillo,Vianey,saam2387@gmail.com,5539141233,,2000,0,0,0,M,,
Encinas, Vazquez,Zaida Mayte,encinasmayte08@gmail.com,5534403735,5529934495,2000,0,0,0,M,,
Enciso, Rodriguez,Maria Fernanda,marifer.enciso0201@gmail.com,5534815020,27333079,2000,1001,0,0,M,,
Enciso, Gomez,Sebastian,rosario.gomez@lmedpolanco.com,5540804032,,300,0,0,0,M,,
Endoneo, Colon,Dulce,dulceendoneocolon@gmail.com,5575071931,5564748063,2000,0,0,0,M,Cita,0
Enriquez, Gomez,Edgar Miguel,Edgar.enriquez@gmail.com,5520435327,5529554557,2000,0,0,0,M,,
Enriquez, Hernández,Patricio Fabián,elpatooo66@gmail.com,5581039192,42083165,2000,0,0,0,M,,
Enríquez, Zaragoza,Alejandra,alejandra2529ez@gmail.com,5527882158,5533174705,500,0,0,0,M,,
Enríquez, Hernández,Ángel Omar,angelo_1417@hotmail.com,5549711808,42083164,2000,0,0,0,M,,
Enríquez, García,Diego,egconcileon@gmail.com,5528642983,57531865,2000,0,0,0,M,Cita,0
Ensastiga, Pichardo,Emily giselle,Pedro.ensastiga@gmail.com,5560868041,5544491522,2000,0,0,0,M,,
ensastiga, Pichardo,pedro Jafet,pedro.ensastiga@gmail.com,5544491522,56005679,2000,0,0,0,M,,
Entzin,,Rafael Jair,rafactr360nike@gmail.com,9671585119,,0,0,0,1000,C,,
Erinque, Trejo,Lizbette,guadalupita.trejo@hotmail.com,96277306,5516442024,2000,0,0,0,M,,
ESCALANTE, JIMENEZ,RAFAEL ANDRES,escalante74@hotmail.com,5513048617,5521610576,2300,0,0,0,M,,
Escalante, Aguilar,Joel Isaac,isaac_escalanteaguilar@hotmail.com,5527161977,5567046439,2000,0,0,0,M,Cita,0
ESCALANTE, MERCADO,ALINE DANIELA,mercadoreynaga@gmail.com,5513624405,57375714,2000,0,0,0,M,,
Escalante, Pool,Isaac,poolisaacd9@gmail.com,5567331819,,2000,0,0,0,M,,
Escalante, Perez,Valeria,yenope72@gmail.com,5529556519,,2000,0,0,0,M,,
Escalera, Juárez,Dulce Lizeth,Dulceli29@Outlook.com,7222397975,2350912,2000,0,0,0,M,,
Escalera, Becerra,Efrain,efrainescalera@gmail.com,5584564305,5517877239,2000,1000,1000,0,M,,
Escalera, Becerra,Carlos Jesús,escalera.becerra.charli@gmail.com,5533523938,5578847374,2000,1000,1001,0,M,Cita,0
ESCALONA,,Angel,angelescalonalopez@gmail.com,5512364569,,0,0,1000,0,Q,,
Escalona,,Arturo Adán,artrudito@hotmail.com,5518116222,5541814524,0,0,0,1000,C,,
Escalona, Pérez,Samara Paola,samaraescalona@outlook.com,5565146015,5575859007,2000,0,0,0,M,,
ESCALONA, RODRIGUEZ,DANIELA YATZIRY,yatziry1702@homail.com,5511194736,5527281702,2000,0,0,1000,M,,
Escamilla, Pulido,Jorge Isaac,gpulidon@hotmail.com,5549359842,57155424,500,0,0,0,M,Cita,0
Escamilla, Lazcano,Saùl,ingsul@hotmail.com,53232501,5561931661,2000,0,0,0,M,,
Escamilla, Cobielles,Jessica Edith,jessyec1508@gmail.com,7791154200,5532960139,2000,0,0,0,M,,
escarcega,,zurizaday,garfs1@yahoo.com.mx,26519020,,0,0,1000,0,Q,,
Escarcega, Esquivel,Monserrat Pamela,pamelaescarcegaesq@gmail.com,5572042654,26272789,2000,0,0,0,M,,
Escobar, Cruz,Abigail,abby_ec_99@yahoo.com.mx,5578348582,59310428,2000,1000,1000,1000,M,,
Escobar, Cabrera,Diego Alexis,diegobromas@hotmail.com,5585856742,,1000,0,0,0,M,,
Escobar, Hernández,Arturo Alejandro,hcale@hotmail.com,5554641150,5540692416,2000,0,0,1000,M,Cita,0
Escobar, Diaz,Abiran Jafet,jafetescobardiaz@gmail.com,5576576661,,0,1000,0,0,M,,
Escobar, Alegria,Jafet,jjjcharo@hotmail.com,3234345454,4343454343,2000,0,0,0,M,,
Escobar, Rodriguez,Juan Carlos,juancharli2001@gmail.com,5533669577,5582607377,500,0,0,0,M,,
Escobar, Palma,Bernardo Daniel,wisynidaniel@hotmail.com,5532501137,,2000,0,0,0,M,Cita,0
Escobedo, Guevara,Jonathan Gregorio,jonathangescobedo@gmail.com,5520840645,5546693915,2000,0,0,0,M,Cita,0
Escorcia, Miranda,Luis Demian,demianmiranda57@gmail.com,57180083,,2000,0,0,1000,M,,
Esnaurrizar, Pérez,Diego,diegoesnaurrizar@gmail.com,5514957267,5578343273,2000,0,0,0,M,,
Esnaurrizar, Perez,Esteban,ivonne_s@prodigy.net.mx,5514957267,5532242237,2000,0,0,0,M,,
Esparza, Vazquez,Emiliano,andrea.vazquez77@hotmail.com,5516540252,53522932,2000,0,0,0,M,,
Esparza, Perez,Diego Enrique,ensiendelo@prodigy.net.mx,53683317,5512390478,2000,0,0,0,M,,
Esparza, Campos,Erika Alejandra,erikaalel799@gmail.com,5510242252,,2000,0,0,0,M,cita,0
Espejel, Garcia,Kendra,estela2332@hotmail.com,5541409936,5570092727,2000,0,0,0,M,Cita,0
Espejel, Rosales,Fernando,fernando.itachi99@gmail.com,5519710520,5540162621,500,0,0,0,M,,
Espinal,,Mariana Guadalupe,mariana617123@gmail.com,68413041,5528675278,0,0,1000,0,Q,,
Espindola, Hernández,Israel,espindolacontadores_sc@hotmail.com,5553434509,445514810341,2000,0,0,0,M,,
Espíndola, Aranda,Carolina,carito24nena@hotmail.com,53038863,5562010564,2000,1000,0,1000,M,Cita,0
Espíndola, Alvarado,Jesus,carlos.jufu@gmail.com,5512866475,5512866475,2000,0,0,0,M,,
Espino, Vargas,David Arzu,daarzu2001@gmail.com,5575171190,5574360779,500,0,0,0,M,,
espino, vazquez,fernanda,fernandaespinivazquez@yahoo.con.mx,63905283,,2000,0,0,0,M,,
Espinosa, Ramírez,María Abigail,abigail19ramirez@gmail.com,5511513574,5548463198,500,0,500,0,M,Cita,0
ESPINOSA, SANTOS,GALADRIEL XCARET,adesar_gax@yahoo.com.mx,51168398,5540044482,2000,1000,0,0,M,Cita,0
Espinosa, Rubio,Alexis Eduardo,alexisrubio888@gmail.com,5560510164,5560517897,2000,0,0,0,M,Cita,0
Espinosa, Rivera,Ana Laura,anaespinoriv@gmail.com,58290928,,2000,0,0,0,M,,
Espinosa, García,Omar Misael,areli.597@hotmail.com,5559391201,5513454127,2000,0,0,0,M,Cita,0
Espinosa, García,Roberto Daniel,areli.597@hotmail.com,5559391201,5513454127,2000,0,0,0,M,Cita,0
Espinosa, López,Bernardo Antonio,bernael882@gmail.com,5544748152,5540564314,500,0,0,0,M,,
Espinosa, Castillo,Abril Melina,carol_812@outlook.com,5517441677,5511927242,2000,0,0,0,M,Cita,0
Espinosa, Hernández,César Iván,cesarivanespinosahernandez@gmail.com,11682454,445566348213,2000,1150,0,0,M,Cita,0
Espinosa, Rivera,Alma Rosa,dalashitara1999@gmail.com,58290958,,2000,0,0,0,M,,
Espinosa, Mijares,Daniel,danielespinosamijares@gmail.com,5565145055,53417936,2000,0,0,0,M,,
Espinosa, Hinojosa,Edgar Allan,edgarallanespinosahinojosa@gmail.com,15206060,5554572835,2000,0,0,0,M,,
Espinosa, Mejia,Fernando Yael,espinosa.mejia.fernandoy@gmail.com,5531199455,5584107442,2000,1000,1000,0,M,,
Espinosa, Romero,Monica,espinosamonica75@gmail.com,5521774008,5521309679,2000,0,0,0,M,,
Espinosa, Reyes,Antonio Zaid,espinosareyesantonio@gmail.com,5584309166,5528497729,2500,1000,500,0,M,Cita,0
Espinosa,,MARIA SARAI,espinosasarai407@gmail.com,5537014059,,0,0,0,1000,C,,
Espinosa, Acosta,Gabriel Omar,gabocrk@gmail.com,5570484740,5570460219,2000,1150,0,0,M,,
ESPINOSA, CONTRERAS,EDUARDO DAVID,lcgallardo72@gmail.com,5537642330,,500,0,0,0,M,,
Espinosa, Bastida,Milton Miguel,mmespinosab@hotmail.com,5577518313,5581292770,1000,0,0,0,M,,
espinosa, angel,jeremy kevin,qbinplay@outlook.es,5537000654,15514691,2000,0,0,0,M,,
Espinoza, Soriano,Abby carmen,alma.soriano@lux.mx,57404815,5529456128,2000,0,0,0,M,,
Espinoza, Soriano,Allen gael,alma.soriano@lux.mx,57404815,5529456128,2000,0,0,0,M,Cita,0
Espinoza, Díaz,Daniela,danynov28111@gmail.com,5576583396,5523943560,2000,0,0,0,M,,
Espinoza,,Jorge emmanuel,emmanuel-espinoza@hotmail.com,5585324342,5512444218,0,0,1000,1000,C,,
Espinoza, Macedo,Jesus Arturo,enriqueee7492@gmail.com,13132781,5551433577,100,0,0,0,M,,
Espinoza, Diaz,ESDRAS JOSUÉ,esdras.jos@hotmail.com,5583399530,5572692094,2000,0,0,0,M,,
Espinoza, Ortiz,Moisés,lucylovegoo21198@gmail.com,5538001271,62824245,2000,0,0,0,M,,
Espinoza, Garcia,Monica,monikameg33@gmail.com,5513982783,5534535648,2000,0,0,0,M,,
Espinoza, Cornejo,Sebastián Noel,rosslavie_71@yahoo.com.mx,5544421345,,2000,0,0,0,M,,
Espinoza, Dumas,Luis daniel,veronica_df2@hotmail.com.mx,5585774864,5513292824,500,0,0,0,M,,
Espinoza, Perez,Ximena,ximenaep@hotmail.com,5567062458,5541908552,2000,0,0,1000,M,,
Espinoza, Hernandez.,Miguel Angel,ylellan_y@yahoo.com.mx,5559897011,,2000,0,0,0,M,,
Espíritu,,Jorge Isaac,espiritujorge85@gmail.com,5530240936,,0,0,0,1500,C,,
Espitia, Martínez,Said,espitia_joel@hotmail.com,65846504,5549325154,2000,0,0,0,M,,
Espitia,,Said,iifloresespitia@gmail.com,5581518384,,0,20,0,0,F,,
espitia, alquicira,naomi,javier_espitia9@yahoo.com.mx,5537005533,58328489,2000,0,0,0,M,,
Esquivel, Tinoco,Erick,1pocoalexis@gmail.com,5584533316,,2000,0,0,0,M,,
Esquivel, Espinoza,Orlando,ana.esp.zav@gmail.com,83767438,5570072984,1000,0,0,0,M,,
Esquivel,,Anelka Ximena,anelkaximena@gmail.com,5519365997,,0,0,0,500,C,Cita,0
Esquivel, Martinez,Roselyne,dralynda@live.com.mx,5554544874,5564831797,200,0,0,0,M,Cita,0
Esquivel, Álvarez,Joksan Eduardo,eduardojoksan718@gmail.com,5585630581,81641149,500,0,0,0,M,,
Esquivel, Jiménez,Frida,esquivelfrida8@gmail.com,5541815463,5532817511,2000,1000,0,0,M,,
Esquivel, Rojas,Favian,favi.ekolo@gmail.com,5583827451,,2000,0,0,0,M,,
Esquivel, Jiménez,Camila,jmnzmaria@hotmail.com,5532817511,,2000,0,0,0,M,,
esquivel, pacheco,vanessa michelle,michelle31_espa@ hotmail.com,5521380594,,2000,1001,0,0,M,Cita,0
Esquivel, Ramirez,Andrei,mine.830413@gmail.com,5516363598,5565230393,2000,0,0,0,M,,
Esquivel, Martinez,Ricardo Francisco,po_damen@hotmail.com,5539362621,,2000,0,0,0,M,,
Esquivel, Robinson,Tayra Elizabeth,tyra_020616@hotmail.com,5520089535,5524070653,100,0,0,0,M,,